%YAML 1.1
%TAG !u! tag:unity3d.com,2011:
--- !u!29 &1
OcclusionCullingSettings:
  m_ObjectHideFlags: 0
  serializedVersion: 2
  m_OcclusionBakeSettings:
    smallestOccluder: 5
    smallestHole: 0.25
    backfaceThreshold: 100
  m_SceneGUID: 00000000000000000000000000000000
  m_OcclusionCullingData: {fileID: 0}
--- !u!104 &2
RenderSettings:
  m_ObjectHideFlags: 0
  serializedVersion: 8
  m_Fog: 0
  m_FogColor: {r: 0.33088237, g: 0.3055125, b: 0.1995026, a: 1}
  m_FogMode: 2
  m_FogDensity: 0.025
  m_LinearFogStart: 5
  m_LinearFogEnd: 20
  m_AmbientSkyColor: {r: 0.39387426, g: 0.35363325, b: 0.4294118, a: 0.8}
  m_AmbientEquatorColor: {r: 0.0912, g: 0.1, b: 0.106400006, a: 0.8}
  m_AmbientGroundColor: {r: 0.0376, g: 0.0344, b: 0.028, a: 0.8}
  m_AmbientIntensity: 0.8
  m_AmbientMode: 3
  m_SubtractiveShadowColor: {r: 0.42, g: 0.478, b: 0.627, a: 1}
  m_SkyboxMaterial: {fileID: 0}
  m_HaloStrength: 0.5
  m_FlareStrength: 1
  m_FlareFadeSpeed: 3
  m_HaloTexture: {fileID: 0}
  m_SpotCookie: {fileID: 10001, guid: 0000000000000000e000000000000000, type: 0}
  m_DefaultReflectionMode: 0
  m_DefaultReflectionResolution: 128
  m_ReflectionBounces: 1
  m_ReflectionIntensity: 1
  m_CustomReflection: {fileID: 0}
  m_Sun: {fileID: 0}
  m_IndirectSpecularColor: {r: 0, g: 0, b: 0, a: 1}
--- !u!157 &3
LightmapSettings:
  m_ObjectHideFlags: 0
  serializedVersion: 11
  m_GIWorkflowMode: 1
  m_GISettings:
    serializedVersion: 2
    m_BounceScale: 1
    m_IndirectOutputScale: 1
    m_AlbedoBoost: 1
    m_TemporalCoherenceThreshold: 1
    m_EnvironmentLightingMode: 0
    m_EnableBakedLightmaps: 1
    m_EnableRealtimeLightmaps: 0
  m_LightmapEditorSettings:
    serializedVersion: 9
    m_Resolution: 2
    m_BakeResolution: 30
    m_TextureWidth: 1024
    m_TextureHeight: 1024
    m_AO: 1
    m_AOMaxDistance: 1
    m_CompAOExponent: 3
    m_CompAOExponentDirect: 1
    m_Padding: 4
    m_LightmapParameters: {fileID: 15200, guid: 0000000000000000f000000000000000,
      type: 0}
    m_LightmapsBakeMode: 0
    m_TextureCompression: 1
    m_FinalGather: 0
    m_FinalGatherFiltering: 1
    m_FinalGatherRayCount: 1024
    m_ReflectionCompression: 2
    m_MixedBakeMode: 1
    m_BakeBackend: 0
    m_PVRSampling: 1
    m_PVRDirectSampleCount: 32
    m_PVRSampleCount: 1000
    m_PVRBounces: 2
    m_PVRFilterTypeDirect: 0
    m_PVRFilterTypeIndirect: 0
    m_PVRFilterTypeAO: 0
    m_PVRFilteringMode: 1
    m_PVRCulling: 1
    m_PVRFilteringGaussRadiusDirect: 1
    m_PVRFilteringGaussRadiusIndirect: 5
    m_PVRFilteringGaussRadiusAO: 2
    m_PVRFilteringAtrousPositionSigmaDirect: 0.5
    m_PVRFilteringAtrousPositionSigmaIndirect: 2
    m_PVRFilteringAtrousPositionSigmaAO: 1
    m_ShowResolutionOverlay: 1
  m_LightingDataAsset: {fileID: 112000002, guid: f063a860947fdde438b2418b9255bd91,
    type: 2}
  m_UseShadowmask: 1
--- !u!196 &4
NavMeshSettings:
  serializedVersion: 2
  m_ObjectHideFlags: 0
  m_BuildSettings:
    serializedVersion: 2
    agentTypeID: 0
    agentRadius: 0.5
    agentHeight: 2
    agentSlope: 1
    agentClimb: 0.2
    ledgeDropHeight: 0
    maxJumpAcrossDistance: 0
    minRegionArea: 2
    manualCellSize: 0
    cellSize: 0.16666667
    manualTileSize: 0
    tileSize: 256
    accuratePlacement: 1
    debug:
      m_Flags: 0
  m_NavMeshData: {fileID: 23800000, guid: 12ff5bb3c39b7b647bba8fc00a1989a8, type: 2}
--- !u!114 &1330737
MonoBehaviour:
  m_ObjectHideFlags: 0
  m_PrefabParentObject: {fileID: 0}
  m_PrefabInternal: {fileID: 0}
  m_GameObject: {fileID: 0}
  m_Enabled: 1
  m_EditorHideFlags: 0
  m_Script: {fileID: 11500000, guid: 2392585f8a4e53a42a0ddc8de25e64d2, type: 3}
  m_Name: 
  m_EditorClassIdentifier: 
  audioSource: {fileID: 905901659}
  audioClip: {fileID: 8300000, guid: 96b6650a22f2cb341a4bbb635f9af634, type: 3}
  delay: 0
--- !u!114 &25289150
MonoBehaviour:
  m_ObjectHideFlags: 0
  m_PrefabParentObject: {fileID: 0}
  m_PrefabInternal: {fileID: 0}
  m_GameObject: {fileID: 0}
  m_Enabled: 1
  m_EditorHideFlags: 0
  m_Script: {fileID: 11500000, guid: 2392585f8a4e53a42a0ddc8de25e64d2, type: 3}
  m_Name: 
  m_EditorClassIdentifier: 
  audioSource: {fileID: 905901658}
  audioClip: {fileID: 8300000, guid: 0d494c2c0a97b4fdc8de4ad7f2e44f43, type: 3}
  delay: 0
--- !u!1001 &65161318
Prefab:
  m_ObjectHideFlags: 0
  serializedVersion: 2
  m_Modification:
    m_TransformParent: {fileID: 0}
    m_Modifications:
    - target: {fileID: 11441280, guid: d48734bd22479a14cb1a52b40aa09db4, type: 2}
      propertyPath: reactions.Array.size
      value: 2
      objectReference: {fileID: 0}
    - target: {fileID: 11485606, guid: d48734bd22479a14cb1a52b40aa09db4, type: 2}
      propertyPath: m_Delegates.Array.size
      value: 3
      objectReference: {fileID: 0}
    - target: {fileID: 11485606, guid: d48734bd22479a14cb1a52b40aa09db4, type: 2}
      propertyPath: m_Delegates.Array.data[1].callback.m_PersistentCalls.m_Calls.Array.size
      value: 1
      objectReference: {fileID: 0}
    - target: {fileID: 11485606, guid: d48734bd22479a14cb1a52b40aa09db4, type: 2}
      propertyPath: m_Delegates.Array.data[2].callback.m_PersistentCalls.m_Calls.Array.size
      value: 1
      objectReference: {fileID: 0}
    - target: {fileID: 474418, guid: d48734bd22479a14cb1a52b40aa09db4, type: 2}
      propertyPath: m_LocalPosition.x
      value: 3.18
      objectReference: {fileID: 0}
    - target: {fileID: 474418, guid: d48734bd22479a14cb1a52b40aa09db4, type: 2}
      propertyPath: m_LocalPosition.y
      value: 0
      objectReference: {fileID: 0}
    - target: {fileID: 474418, guid: d48734bd22479a14cb1a52b40aa09db4, type: 2}
      propertyPath: m_LocalPosition.z
      value: 0.24
      objectReference: {fileID: 0}
    - target: {fileID: 474418, guid: d48734bd22479a14cb1a52b40aa09db4, type: 2}
      propertyPath: m_LocalRotation.x
      value: 0
      objectReference: {fileID: 0}
    - target: {fileID: 474418, guid: d48734bd22479a14cb1a52b40aa09db4, type: 2}
      propertyPath: m_LocalRotation.y
      value: 0
      objectReference: {fileID: 0}
    - target: {fileID: 474418, guid: d48734bd22479a14cb1a52b40aa09db4, type: 2}
      propertyPath: m_LocalRotation.z
      value: 0
      objectReference: {fileID: 0}
    - target: {fileID: 474418, guid: d48734bd22479a14cb1a52b40aa09db4, type: 2}
      propertyPath: m_LocalRotation.w
      value: 1
      objectReference: {fileID: 0}
    - target: {fileID: 474418, guid: d48734bd22479a14cb1a52b40aa09db4, type: 2}
      propertyPath: m_RootOrder
      value: 4
      objectReference: {fileID: 0}
    - target: {fileID: 11485606, guid: d48734bd22479a14cb1a52b40aa09db4, type: 2}
      propertyPath: m_Delegates.Array.data[0].callback.m_PersistentCalls.m_Calls.Array.data[0].m_Target
      value: 
      objectReference: {fileID: 1094123812}
    - target: {fileID: 11485606, guid: d48734bd22479a14cb1a52b40aa09db4, type: 2}
      propertyPath: m_Delegates.Array.data[0].callback.m_PersistentCalls.m_Calls.Array.data[0].m_MethodName
      value: OnInteractableClick
      objectReference: {fileID: 0}
    - target: {fileID: 11485606, guid: d48734bd22479a14cb1a52b40aa09db4, type: 2}
      propertyPath: m_Delegates.Array.data[0].callback.m_PersistentCalls.m_Calls.Array.data[0].m_Mode
      value: 2
      objectReference: {fileID: 0}
    - target: {fileID: 11485606, guid: d48734bd22479a14cb1a52b40aa09db4, type: 2}
      propertyPath: m_Delegates.Array.data[0].callback.m_PersistentCalls.m_Calls.Array.data[0].m_Arguments.m_ObjectArgumentAssemblyTypeName
      value: Interactable, Assembly-CSharp
      objectReference: {fileID: 0}
    - target: {fileID: 11485606, guid: d48734bd22479a14cb1a52b40aa09db4, type: 2}
      propertyPath: m_Delegates.Array.data[0].callback.m_PersistentCalls.m_Calls.Array.data[0].m_Arguments.m_ObjectArgument
      value: 
      objectReference: {fileID: 65161319}
    - target: {fileID: 194222, guid: d48734bd22479a14cb1a52b40aa09db4, type: 2}
      propertyPath: m_Name
      value: PictureInteractable
      objectReference: {fileID: 0}
    - target: {fileID: 6512962, guid: d48734bd22479a14cb1a52b40aa09db4, type: 2}
      propertyPath: m_Size.x
      value: 0.25
      objectReference: {fileID: 0}
    - target: {fileID: 6512962, guid: d48734bd22479a14cb1a52b40aa09db4, type: 2}
      propertyPath: m_Size.y
      value: 2.3
      objectReference: {fileID: 0}
    - target: {fileID: 6512962, guid: d48734bd22479a14cb1a52b40aa09db4, type: 2}
      propertyPath: m_Size.z
      value: 3.8
      objectReference: {fileID: 0}
    - target: {fileID: 6512962, guid: d48734bd22479a14cb1a52b40aa09db4, type: 2}
      propertyPath: m_Center.y
      value: 2.5
      objectReference: {fileID: 0}
    - target: {fileID: 491826, guid: d48734bd22479a14cb1a52b40aa09db4, type: 2}
      propertyPath: m_LocalRotation.y
      value: 0.7071068
      objectReference: {fileID: 0}
    - target: {fileID: 491826, guid: d48734bd22479a14cb1a52b40aa09db4, type: 2}
      propertyPath: m_LocalRotation.w
      value: 0.7071067
      objectReference: {fileID: 0}
    - target: {fileID: 491826, guid: d48734bd22479a14cb1a52b40aa09db4, type: 2}
      propertyPath: m_LocalPosition.x
      value: -1.5
      objectReference: {fileID: 0}
    - target: {fileID: 491826, guid: d48734bd22479a14cb1a52b40aa09db4, type: 2}
      propertyPath: m_LocalEulerAnglesHint.y
      value: 90
      objectReference: {fileID: 0}
    - target: {fileID: 11441280, guid: d48734bd22479a14cb1a52b40aa09db4, type: 2}
      propertyPath: reactions.Array.data[0]
      value: 
      objectReference: {fileID: 1272427429}
    - target: {fileID: 11441280, guid: d48734bd22479a14cb1a52b40aa09db4, type: 2}
      propertyPath: reactions.Array.data[1]
      value: 
      objectReference: {fileID: 25289150}
    - target: {fileID: 11441280, guid: d48734bd22479a14cb1a52b40aa09db4, type: 2}
      propertyPath: reactions.Array.data[2]
      value: 
      objectReference: {fileID: 1231559414}
    - target: {fileID: 11441280, guid: d48734bd22479a14cb1a52b40aa09db4, type: 2}
      propertyPath: reactions.Array.data[3]
      value: 
      objectReference: {fileID: 815170027}
    - target: {fileID: 11441280, guid: d48734bd22479a14cb1a52b40aa09db4, type: 2}
      propertyPath: reactions.Array.data[4]
      value: 
      objectReference: {fileID: 815170027}
    - target: {fileID: 11441280, guid: d48734bd22479a14cb1a52b40aa09db4, type: 2}
      propertyPath: reactions.Array.data[5]
      value: 
      objectReference: {fileID: 1610222598}
    - target: {fileID: 11441280, guid: d48734bd22479a14cb1a52b40aa09db4, type: 2}
      propertyPath: reactions.Array.data[6]
      value: 
      objectReference: {fileID: 1578821600}
    - target: {fileID: 11485606, guid: d48734bd22479a14cb1a52b40aa09db4, type: 2}
      propertyPath: m_Delegates.Array.data[1].callback.m_PersistentCalls.m_Calls.Array.data[0].m_Target
      value: 
      objectReference: {fileID: 1094123814}
    - target: {fileID: 11485606, guid: d48734bd22479a14cb1a52b40aa09db4, type: 2}
      propertyPath: m_Delegates.Array.data[1].callback.m_PersistentCalls.m_Calls.Array.data[0].m_MethodName
      value: OnPointerEnter
      objectReference: {fileID: 0}
    - target: {fileID: 11485606, guid: d48734bd22479a14cb1a52b40aa09db4, type: 2}
      propertyPath: m_Delegates.Array.data[1].callback.m_PersistentCalls.m_Calls.Array.data[0].m_Mode
      value: 1
      objectReference: {fileID: 0}
    - target: {fileID: 11485606, guid: d48734bd22479a14cb1a52b40aa09db4, type: 2}
      propertyPath: m_Delegates.Array.data[1].callback.m_PersistentCalls.m_Calls.Array.data[0].m_Arguments.m_ObjectArgument
      value: 
      objectReference: {fileID: 0}
    - target: {fileID: 11485606, guid: d48734bd22479a14cb1a52b40aa09db4, type: 2}
      propertyPath: m_Delegates.Array.data[1].callback.m_PersistentCalls.m_Calls.Array.data[0].m_Arguments.m_ObjectArgumentAssemblyTypeName
      value: UnityEngine.Object, UnityEngine
      objectReference: {fileID: 0}
    - target: {fileID: 11485606, guid: d48734bd22479a14cb1a52b40aa09db4, type: 2}
      propertyPath: m_Delegates.Array.data[1].callback.m_PersistentCalls.m_Calls.Array.data[0].m_CallState
      value: 2
      objectReference: {fileID: 0}
    - target: {fileID: 11485606, guid: d48734bd22479a14cb1a52b40aa09db4, type: 2}
      propertyPath: m_Delegates.Array.data[1].callback.m_TypeName
      value: UnityEngine.EventSystems.EventTrigger+TriggerEvent, UnityEngine.UI, Version=1.0.0.0,
        Culture=neutral, PublicKeyToken=null
      objectReference: {fileID: 0}
    - target: {fileID: 11485606, guid: d48734bd22479a14cb1a52b40aa09db4, type: 2}
      propertyPath: m_Delegates.Array.data[2].eventID
      value: 1
      objectReference: {fileID: 0}
    - target: {fileID: 11485606, guid: d48734bd22479a14cb1a52b40aa09db4, type: 2}
      propertyPath: m_Delegates.Array.data[2].callback.m_PersistentCalls.m_Calls.Array.data[0].m_Target
      value: 
      objectReference: {fileID: 1094123814}
    - target: {fileID: 11485606, guid: d48734bd22479a14cb1a52b40aa09db4, type: 2}
      propertyPath: m_Delegates.Array.data[2].callback.m_PersistentCalls.m_Calls.Array.data[0].m_MethodName
      value: OnPointerExit
      objectReference: {fileID: 0}
    - target: {fileID: 11485606, guid: d48734bd22479a14cb1a52b40aa09db4, type: 2}
      propertyPath: m_Delegates.Array.data[2].callback.m_PersistentCalls.m_Calls.Array.data[0].m_Mode
      value: 1
      objectReference: {fileID: 0}
    - target: {fileID: 11485606, guid: d48734bd22479a14cb1a52b40aa09db4, type: 2}
      propertyPath: m_Delegates.Array.data[2].callback.m_PersistentCalls.m_Calls.Array.data[0].m_Arguments.m_ObjectArgumentAssemblyTypeName
      value: UnityEngine.Object, UnityEngine
      objectReference: {fileID: 0}
    - target: {fileID: 11485606, guid: d48734bd22479a14cb1a52b40aa09db4, type: 2}
      propertyPath: m_Delegates.Array.data[2].callback.m_PersistentCalls.m_Calls.Array.data[0].m_CallState
      value: 2
      objectReference: {fileID: 0}
    - target: {fileID: 11485606, guid: d48734bd22479a14cb1a52b40aa09db4, type: 2}
      propertyPath: m_Delegates.Array.data[2].callback.m_TypeName
      value: UnityEngine.EventSystems.EventTrigger+TriggerEvent, UnityEngine.UI, Version=1.0.0.0,
        Culture=neutral, PublicKeyToken=null
      objectReference: {fileID: 0}
    m_RemovedComponents: []
  m_ParentPrefab: {fileID: 100100000, guid: d48734bd22479a14cb1a52b40aa09db4, type: 2}
  m_IsPrefabParent: 0
--- !u!114 &65161319 stripped
MonoBehaviour:
  m_PrefabParentObject: {fileID: 11484708, guid: d48734bd22479a14cb1a52b40aa09db4,
    type: 2}
  m_PrefabInternal: {fileID: 65161318}
  m_Script: {fileID: 11500000, guid: d85941078afdf3244b2a1ae50fea256c, type: 3}
--- !u!114 &104556140
MonoBehaviour:
  m_ObjectHideFlags: 0
  m_PrefabParentObject: {fileID: 0}
  m_PrefabInternal: {fileID: 0}
  m_GameObject: {fileID: 0}
  m_Enabled: 1
  m_EditorHideFlags: 0
  m_Script: {fileID: 11500000, guid: 2392585f8a4e53a42a0ddc8de25e64d2, type: 3}
  m_Name: 
  m_EditorClassIdentifier: 
  audioSource: {fileID: 905901658}
  audioClip: {fileID: 8300000, guid: 707d533b18a364142897701cc3b4027e, type: 3}
  delay: 0
--- !u!114 &227469776
MonoBehaviour:
  m_ObjectHideFlags: 0
  m_PrefabParentObject: {fileID: 0}
  m_PrefabInternal: {fileID: 0}
  m_GameObject: {fileID: 0}
  m_Enabled: 1
  m_EditorHideFlags: 0
  m_Script: {fileID: 11500000, guid: 48c14b7cdc8cc6347b3a5d48d05c9c85, type: 3}
  m_Name: 
  m_EditorClassIdentifier: 
  description: HasGlasses
  satisfied: 1
  hash: -1554804606
--- !u!114 &236826289
MonoBehaviour:
  m_ObjectHideFlags: 0
  m_PrefabParentObject: {fileID: 0}
  m_PrefabInternal: {fileID: 0}
  m_GameObject: {fileID: 0}
  m_Enabled: 1
  m_EditorHideFlags: 0
  m_Script: {fileID: 11500000, guid: 2392585f8a4e53a42a0ddc8de25e64d2, type: 3}
  m_Name: 
  m_EditorClassIdentifier: 
  audioSource: {fileID: 905901659}
  audioClip: {fileID: 8300000, guid: ebdaadc1993914f48991efbeda5ed08e, type: 3}
  delay: 0
--- !u!114 &294159636
MonoBehaviour:
  m_ObjectHideFlags: 0
  m_PrefabParentObject: {fileID: 0}
  m_PrefabInternal: {fileID: 0}
  m_GameObject: {fileID: 0}
  m_Enabled: 1
  m_EditorHideFlags: 0
  m_Script: {fileID: 11500000, guid: 03f8a149ea5a3aa4583dc1cab3334cbc, type: 3}
  m_Name: 
  m_EditorClassIdentifier: 
  message: Hey Frank, you shouldn't go through without the boss's coffee.
  textColor: {r: 0, g: 1, b: 1, a: 1}
  delay: 0
--- !u!114 &503792339
MonoBehaviour:
  m_ObjectHideFlags: 0
  m_PrefabParentObject: {fileID: 0}
  m_PrefabInternal: {fileID: 0}
  m_GameObject: {fileID: 0}
  m_Enabled: 1
  m_EditorHideFlags: 0
  m_Script: {fileID: 11500000, guid: 03f8a149ea5a3aa4583dc1cab3334cbc, type: 3}
  m_Name: 
  m_EditorClassIdentifier: 
  message: Hey Frank!  Go on through!
  textColor: {r: 0, g: 1, b: 1, a: 1}
  delay: 0
--- !u!114 &639733709
MonoBehaviour:
  m_ObjectHideFlags: 0
  m_PrefabParentObject: {fileID: 0}
  m_PrefabInternal: {fileID: 0}
  m_GameObject: {fileID: 0}
  m_Enabled: 1
  m_EditorHideFlags: 0
  m_Script: {fileID: 11500000, guid: 2392585f8a4e53a42a0ddc8de25e64d2, type: 3}
  m_Name: 
  m_EditorClassIdentifier: 
  audioSource: {fileID: 905901659}
  audioClip: {fileID: 8300000, guid: 28b6ecbb67d75a743be188695bc54261, type: 3}
  delay: 0.5
--- !u!114 &669618034
MonoBehaviour:
  m_ObjectHideFlags: 0
  m_PrefabParentObject: {fileID: 0}
  m_PrefabInternal: {fileID: 0}
  m_GameObject: {fileID: 0}
  m_Enabled: 1
  m_EditorHideFlags: 0
  m_Script: {fileID: 11500000, guid: 4900350095ceff24fbe8c1ac5f1e17c4, type: 3}
  m_Name: 
  m_EditorClassIdentifier: 
  description: new condition collection
  requiredConditions:
  - {fileID: 1497693457}
  reactionCollection: {fileID: 0}
--- !u!114 &682091567
MonoBehaviour:
  m_ObjectHideFlags: 0
  m_PrefabParentObject: {fileID: 0}
  m_PrefabInternal: {fileID: 0}
  m_GameObject: {fileID: 0}
  m_Enabled: 1
  m_EditorHideFlags: 0
  m_Script: {fileID: 11500000, guid: 2392585f8a4e53a42a0ddc8de25e64d2, type: 3}
  m_Name: 
  m_EditorClassIdentifier: 
  audioSource: {fileID: 905901658}
  audioClip: {fileID: 8300000, guid: 20b36408ef0bfce45b7d4010cc76e7de, type: 3}
  delay: 0
--- !u!114 &693356648
MonoBehaviour:
  m_ObjectHideFlags: 0
  m_PrefabParentObject: {fileID: 0}
  m_PrefabInternal: {fileID: 0}
  m_GameObject: {fileID: 0}
  m_Enabled: 1
  m_EditorHideFlags: 0
  m_Script: {fileID: 11500000, guid: 03f8a149ea5a3aa4583dc1cab3334cbc, type: 3}
  m_Name: 
  m_EditorClassIdentifier: 
  message: Get lost!
  textColor: {r: 0, g: 1, b: 1, a: 1}
  delay: 0
--- !u!114 &789374198
MonoBehaviour:
  m_ObjectHideFlags: 0
  m_PrefabParentObject: {fileID: 0}
  m_PrefabInternal: {fileID: 0}
  m_GameObject: {fileID: 0}
  m_Enabled: 1
  m_EditorHideFlags: 0
  m_Script: {fileID: 11500000, guid: 2392585f8a4e53a42a0ddc8de25e64d2, type: 3}
  m_Name: 
  m_EditorClassIdentifier: 
  audioSource: {fileID: 905901658}
  audioClip: {fileID: 8300000, guid: d18f058921ed94b17847871c11f8c9da, type: 3}
  delay: 0
--- !u!114 &795348259
MonoBehaviour:
  m_ObjectHideFlags: 0
  m_PrefabParentObject: {fileID: 0}
  m_PrefabInternal: {fileID: 0}
  m_GameObject: {fileID: 0}
  m_Enabled: 1
  m_EditorHideFlags: 0
  m_Script: {fileID: 11500000, guid: 80c32f1270758a64ba4bc71dbf7e498b, type: 3}
  m_Name: 
  m_EditorClassIdentifier: 
  delay: 0.5
  gameObject: {fileID: 1043656358}
  activeState: 0
--- !u!114 &815170027
MonoBehaviour:
  m_ObjectHideFlags: 0
  m_PrefabParentObject: {fileID: 0}
  m_PrefabInternal: {fileID: 0}
  m_GameObject: {fileID: 0}
  m_Enabled: 1
  m_EditorHideFlags: 0
  m_Script: {fileID: 11500000, guid: a931d1c243b462c46bad5f7d2aae5949, type: 3}
  m_Name: 
  m_EditorClassIdentifier: 
  delay: 0
  animator: {fileID: 0}
  trigger: 
--- !u!114 &832231904
MonoBehaviour:
  m_ObjectHideFlags: 0
  m_PrefabParentObject: {fileID: 0}
  m_PrefabInternal: {fileID: 0}
  m_GameObject: {fileID: 0}
  m_Enabled: 1
  m_EditorHideFlags: 0
  m_Script: {fileID: 11500000, guid: 2392585f8a4e53a42a0ddc8de25e64d2, type: 3}
  m_Name: 
  m_EditorClassIdentifier: 
  audioSource: {fileID: 905901658}
  audioClip: {fileID: 8300000, guid: d786774c25f284b79bcda64a1571c979, type: 3}
  delay: 0
--- !u!1001 &904848606
Prefab:
  m_ObjectHideFlags: 0
  serializedVersion: 2
  m_Modification:
    m_TransformParent: {fileID: 0}
    m_Modifications:
    - target: {fileID: 11441280, guid: d48734bd22479a14cb1a52b40aa09db4, type: 2}
      propertyPath: reactions.Array.size
      value: 2
      objectReference: {fileID: 0}
    - target: {fileID: 11485606, guid: d48734bd22479a14cb1a52b40aa09db4, type: 2}
      propertyPath: m_Delegates.Array.size
      value: 3
      objectReference: {fileID: 0}
    - target: {fileID: 11485606, guid: d48734bd22479a14cb1a52b40aa09db4, type: 2}
      propertyPath: m_Delegates.Array.data[1].callback.m_PersistentCalls.m_Calls.Array.size
      value: 1
      objectReference: {fileID: 0}
    - target: {fileID: 11485606, guid: d48734bd22479a14cb1a52b40aa09db4, type: 2}
      propertyPath: m_Delegates.Array.data[2].callback.m_PersistentCalls.m_Calls.Array.size
      value: 1
      objectReference: {fileID: 0}
    - target: {fileID: 474418, guid: d48734bd22479a14cb1a52b40aa09db4, type: 2}
      propertyPath: m_LocalPosition.x
      value: -0.7
      objectReference: {fileID: 0}
    - target: {fileID: 474418, guid: d48734bd22479a14cb1a52b40aa09db4, type: 2}
      propertyPath: m_LocalPosition.y
      value: 0
      objectReference: {fileID: 0}
    - target: {fileID: 474418, guid: d48734bd22479a14cb1a52b40aa09db4, type: 2}
      propertyPath: m_LocalPosition.z
      value: 5.25
      objectReference: {fileID: 0}
    - target: {fileID: 474418, guid: d48734bd22479a14cb1a52b40aa09db4, type: 2}
      propertyPath: m_LocalRotation.x
      value: 0
      objectReference: {fileID: 0}
    - target: {fileID: 474418, guid: d48734bd22479a14cb1a52b40aa09db4, type: 2}
      propertyPath: m_LocalRotation.y
      value: 0
      objectReference: {fileID: 0}
    - target: {fileID: 474418, guid: d48734bd22479a14cb1a52b40aa09db4, type: 2}
      propertyPath: m_LocalRotation.z
      value: 0
      objectReference: {fileID: 0}
    - target: {fileID: 474418, guid: d48734bd22479a14cb1a52b40aa09db4, type: 2}
      propertyPath: m_LocalRotation.w
      value: 1
      objectReference: {fileID: 0}
    - target: {fileID: 474418, guid: d48734bd22479a14cb1a52b40aa09db4, type: 2}
      propertyPath: m_RootOrder
      value: 3
      objectReference: {fileID: 0}
    - target: {fileID: 11485606, guid: d48734bd22479a14cb1a52b40aa09db4, type: 2}
      propertyPath: m_Delegates.Array.data[0].callback.m_PersistentCalls.m_Calls.Array.data[0].m_Target
      value: 
      objectReference: {fileID: 1094123812}
    - target: {fileID: 11485606, guid: d48734bd22479a14cb1a52b40aa09db4, type: 2}
      propertyPath: m_Delegates.Array.data[0].callback.m_PersistentCalls.m_Calls.Array.data[0].m_MethodName
      value: OnInteractableClick
      objectReference: {fileID: 0}
    - target: {fileID: 11485606, guid: d48734bd22479a14cb1a52b40aa09db4, type: 2}
      propertyPath: m_Delegates.Array.data[0].callback.m_PersistentCalls.m_Calls.Array.data[0].m_Mode
      value: 2
      objectReference: {fileID: 0}
    - target: {fileID: 11485606, guid: d48734bd22479a14cb1a52b40aa09db4, type: 2}
      propertyPath: m_Delegates.Array.data[0].callback.m_PersistentCalls.m_Calls.Array.data[0].m_Arguments.m_ObjectArgumentAssemblyTypeName
      value: Interactable, Assembly-CSharp
      objectReference: {fileID: 0}
    - target: {fileID: 11485606, guid: d48734bd22479a14cb1a52b40aa09db4, type: 2}
      propertyPath: m_Delegates.Array.data[0].callback.m_PersistentCalls.m_Calls.Array.data[0].m_Arguments.m_ObjectArgument
      value: 
      objectReference: {fileID: 904848607}
    - target: {fileID: 194222, guid: d48734bd22479a14cb1a52b40aa09db4, type: 2}
      propertyPath: m_Name
      value: DoorToMarketInteractable
      objectReference: {fileID: 0}
    - target: {fileID: 6512962, guid: d48734bd22479a14cb1a52b40aa09db4, type: 2}
      propertyPath: m_Size.x
      value: 2
      objectReference: {fileID: 0}
    - target: {fileID: 6512962, guid: d48734bd22479a14cb1a52b40aa09db4, type: 2}
      propertyPath: m_Size.y
      value: 0.4
      objectReference: {fileID: 0}
    - target: {fileID: 6512962, guid: d48734bd22479a14cb1a52b40aa09db4, type: 2}
      propertyPath: m_Size.z
      value: 2.5
      objectReference: {fileID: 0}
    - target: {fileID: 6512962, guid: d48734bd22479a14cb1a52b40aa09db4, type: 2}
      propertyPath: m_Center.y
      value: 0.2
      objectReference: {fileID: 0}
    - target: {fileID: 11441280, guid: d48734bd22479a14cb1a52b40aa09db4, type: 2}
      propertyPath: reactions.Array.data[0]
      value: 
      objectReference: {fileID: 1548132460}
    - target: {fileID: 11441280, guid: d48734bd22479a14cb1a52b40aa09db4, type: 2}
      propertyPath: reactions.Array.data[1]
      value: 
      objectReference: {fileID: 236826289}
    - target: {fileID: 11485606, guid: d48734bd22479a14cb1a52b40aa09db4, type: 2}
      propertyPath: m_Delegates.Array.data[1].callback.m_PersistentCalls.m_Calls.Array.data[0].m_Target
      value: 
      objectReference: {fileID: 1094123814}
    - target: {fileID: 11485606, guid: d48734bd22479a14cb1a52b40aa09db4, type: 2}
      propertyPath: m_Delegates.Array.data[1].callback.m_PersistentCalls.m_Calls.Array.data[0].m_MethodName
      value: OnPointerEnter
      objectReference: {fileID: 0}
    - target: {fileID: 11485606, guid: d48734bd22479a14cb1a52b40aa09db4, type: 2}
      propertyPath: m_Delegates.Array.data[1].callback.m_PersistentCalls.m_Calls.Array.data[0].m_Mode
      value: 1
      objectReference: {fileID: 0}
    - target: {fileID: 11485606, guid: d48734bd22479a14cb1a52b40aa09db4, type: 2}
      propertyPath: m_Delegates.Array.data[1].callback.m_PersistentCalls.m_Calls.Array.data[0].m_Arguments.m_ObjectArgument
      value: 
      objectReference: {fileID: 0}
    - target: {fileID: 11485606, guid: d48734bd22479a14cb1a52b40aa09db4, type: 2}
      propertyPath: m_Delegates.Array.data[1].callback.m_PersistentCalls.m_Calls.Array.data[0].m_Arguments.m_ObjectArgumentAssemblyTypeName
      value: UnityEngine.Object, UnityEngine
      objectReference: {fileID: 0}
    - target: {fileID: 11485606, guid: d48734bd22479a14cb1a52b40aa09db4, type: 2}
      propertyPath: m_Delegates.Array.data[1].callback.m_PersistentCalls.m_Calls.Array.data[0].m_CallState
      value: 2
      objectReference: {fileID: 0}
    - target: {fileID: 11485606, guid: d48734bd22479a14cb1a52b40aa09db4, type: 2}
      propertyPath: m_Delegates.Array.data[1].callback.m_TypeName
      value: UnityEngine.EventSystems.EventTrigger+TriggerEvent, UnityEngine.UI, Version=1.0.0.0,
        Culture=neutral, PublicKeyToken=null
      objectReference: {fileID: 0}
    - target: {fileID: 11485606, guid: d48734bd22479a14cb1a52b40aa09db4, type: 2}
      propertyPath: m_Delegates.Array.data[2].eventID
      value: 1
      objectReference: {fileID: 0}
    - target: {fileID: 11485606, guid: d48734bd22479a14cb1a52b40aa09db4, type: 2}
      propertyPath: m_Delegates.Array.data[2].callback.m_PersistentCalls.m_Calls.Array.data[0].m_Target
      value: 
      objectReference: {fileID: 1094123814}
    - target: {fileID: 11485606, guid: d48734bd22479a14cb1a52b40aa09db4, type: 2}
      propertyPath: m_Delegates.Array.data[2].callback.m_PersistentCalls.m_Calls.Array.data[0].m_MethodName
      value: OnPointerExit
      objectReference: {fileID: 0}
    - target: {fileID: 11485606, guid: d48734bd22479a14cb1a52b40aa09db4, type: 2}
      propertyPath: m_Delegates.Array.data[2].callback.m_PersistentCalls.m_Calls.Array.data[0].m_Mode
      value: 1
      objectReference: {fileID: 0}
    - target: {fileID: 11485606, guid: d48734bd22479a14cb1a52b40aa09db4, type: 2}
      propertyPath: m_Delegates.Array.data[2].callback.m_PersistentCalls.m_Calls.Array.data[0].m_Arguments.m_ObjectArgument
      value: 
      objectReference: {fileID: 0}
    - target: {fileID: 11485606, guid: d48734bd22479a14cb1a52b40aa09db4, type: 2}
      propertyPath: m_Delegates.Array.data[2].callback.m_PersistentCalls.m_Calls.Array.data[0].m_Arguments.m_ObjectArgumentAssemblyTypeName
      value: UnityEngine.Object, UnityEngine
      objectReference: {fileID: 0}
    - target: {fileID: 11485606, guid: d48734bd22479a14cb1a52b40aa09db4, type: 2}
      propertyPath: m_Delegates.Array.data[2].callback.m_PersistentCalls.m_Calls.Array.data[0].m_CallState
      value: 2
      objectReference: {fileID: 0}
    - target: {fileID: 11485606, guid: d48734bd22479a14cb1a52b40aa09db4, type: 2}
      propertyPath: m_Delegates.Array.data[2].callback.m_TypeName
      value: UnityEngine.EventSystems.EventTrigger+TriggerEvent, UnityEngine.UI, Version=1.0.0.0,
        Culture=neutral, PublicKeyToken=null
      objectReference: {fileID: 0}
    m_RemovedComponents: []
  m_ParentPrefab: {fileID: 100100000, guid: d48734bd22479a14cb1a52b40aa09db4, type: 2}
  m_IsPrefabParent: 0
--- !u!114 &904848607 stripped
MonoBehaviour:
  m_PrefabParentObject: {fileID: 11484708, guid: d48734bd22479a14cb1a52b40aa09db4,
    type: 2}
  m_PrefabInternal: {fileID: 904848606}
  m_Script: {fileID: 11500000, guid: d85941078afdf3244b2a1ae50fea256c, type: 3}
--- !u!1001 &905901657
Prefab:
  m_ObjectHideFlags: 0
  serializedVersion: 2
  m_Modification:
    m_TransformParent: {fileID: 0}
    m_Modifications:
    - target: {fileID: 472252, guid: 0036c73aed31ec14fbbf45853c79fc14, type: 2}
      propertyPath: m_LocalPosition.x
      value: 0
      objectReference: {fileID: 0}
    - target: {fileID: 472252, guid: 0036c73aed31ec14fbbf45853c79fc14, type: 2}
      propertyPath: m_LocalPosition.y
      value: 0
      objectReference: {fileID: 0}
    - target: {fileID: 472252, guid: 0036c73aed31ec14fbbf45853c79fc14, type: 2}
      propertyPath: m_LocalPosition.z
      value: 0
      objectReference: {fileID: 0}
    - target: {fileID: 472252, guid: 0036c73aed31ec14fbbf45853c79fc14, type: 2}
      propertyPath: m_LocalRotation.x
      value: 0
      objectReference: {fileID: 0}
    - target: {fileID: 472252, guid: 0036c73aed31ec14fbbf45853c79fc14, type: 2}
      propertyPath: m_LocalRotation.y
      value: 0
      objectReference: {fileID: 0}
    - target: {fileID: 472252, guid: 0036c73aed31ec14fbbf45853c79fc14, type: 2}
      propertyPath: m_LocalRotation.z
      value: 0
      objectReference: {fileID: 0}
    - target: {fileID: 472252, guid: 0036c73aed31ec14fbbf45853c79fc14, type: 2}
      propertyPath: m_LocalRotation.w
      value: 1
      objectReference: {fileID: 0}
    - target: {fileID: 472252, guid: 0036c73aed31ec14fbbf45853c79fc14, type: 2}
      propertyPath: m_RootOrder
      value: 1
      objectReference: {fileID: 0}
    - target: {fileID: 8260042, guid: 0036c73aed31ec14fbbf45853c79fc14, type: 2}
      propertyPath: m_audioClip
      value: 
      objectReference: {fileID: 8300000, guid: 19e9160e69a211246b8d3e4de36e96ec, type: 3}
    m_RemovedComponents: []
  m_ParentPrefab: {fileID: 100100000, guid: 0036c73aed31ec14fbbf45853c79fc14, type: 2}
  m_IsPrefabParent: 0
--- !u!82 &905901658 stripped
AudioSource:
  m_PrefabParentObject: {fileID: 8277418, guid: 0036c73aed31ec14fbbf45853c79fc14,
    type: 2}
  m_PrefabInternal: {fileID: 905901657}
--- !u!82 &905901659 stripped
AudioSource:
  m_PrefabParentObject: {fileID: 8299186, guid: 0036c73aed31ec14fbbf45853c79fc14,
    type: 2}
  m_PrefabInternal: {fileID: 905901657}
--- !u!114 &921382151
MonoBehaviour:
  m_ObjectHideFlags: 0
  m_PrefabParentObject: {fileID: 0}
  m_PrefabInternal: {fileID: 0}
  m_GameObject: {fileID: 0}
  m_Enabled: 1
  m_EditorHideFlags: 0
  m_Script: {fileID: 11500000, guid: a931d1c243b462c46bad5f7d2aae5949, type: 3}
  m_Name: 
  m_EditorClassIdentifier: 
  delay: 2
  animator: {fileID: 0}
  trigger: 
--- !u!114 &923580822
MonoBehaviour:
  m_ObjectHideFlags: 0
  m_PrefabParentObject: {fileID: 0}
  m_PrefabInternal: {fileID: 0}
  m_GameObject: {fileID: 0}
  m_Enabled: 1
  m_EditorHideFlags: 0
  m_Script: {fileID: 11500000, guid: 48c14b7cdc8cc6347b3a5d48d05c9c85, type: 3}
  m_Name: 
  m_EditorClassIdentifier: 
  description: HasGlasses
  satisfied: 1
  hash: -1554804606
--- !u!1001 &1043656357
Prefab:
  m_ObjectHideFlags: 0
  serializedVersion: 2
  m_Modification:
    m_TransformParent: {fileID: 0}
    m_Modifications:
    - target: {fileID: 435212, guid: 8902cc0c7910bcd4ab3ccacb67555809, type: 2}
      propertyPath: m_LocalPosition.x
      value: 0
      objectReference: {fileID: 0}
    - target: {fileID: 435212, guid: 8902cc0c7910bcd4ab3ccacb67555809, type: 2}
      propertyPath: m_LocalPosition.y
      value: 0
      objectReference: {fileID: 0}
    - target: {fileID: 435212, guid: 8902cc0c7910bcd4ab3ccacb67555809, type: 2}
      propertyPath: m_LocalPosition.z
      value: 0
      objectReference: {fileID: 0}
    - target: {fileID: 435212, guid: 8902cc0c7910bcd4ab3ccacb67555809, type: 2}
      propertyPath: m_LocalRotation.x
      value: 0
      objectReference: {fileID: 0}
    - target: {fileID: 435212, guid: 8902cc0c7910bcd4ab3ccacb67555809, type: 2}
      propertyPath: m_LocalRotation.y
      value: 0
      objectReference: {fileID: 0}
    - target: {fileID: 435212, guid: 8902cc0c7910bcd4ab3ccacb67555809, type: 2}
      propertyPath: m_LocalRotation.z
      value: 0
      objectReference: {fileID: 0}
    - target: {fileID: 435212, guid: 8902cc0c7910bcd4ab3ccacb67555809, type: 2}
      propertyPath: m_LocalRotation.w
      value: 1
      objectReference: {fileID: 0}
    - target: {fileID: 435212, guid: 8902cc0c7910bcd4ab3ccacb67555809, type: 2}
      propertyPath: m_RootOrder
      value: 2
      objectReference: {fileID: 0}
    - target: {fileID: 401942, guid: 8902cc0c7910bcd4ab3ccacb67555809, type: 2}
      propertyPath: m_LocalRotation.x
      value: 0.6551722
      objectReference: {fileID: 0}
    - target: {fileID: 401942, guid: 8902cc0c7910bcd4ab3ccacb67555809, type: 2}
      propertyPath: m_LocalRotation.y
      value: 0.2663453
      objectReference: {fileID: 0}
    - target: {fileID: 401942, guid: 8902cc0c7910bcd4ab3ccacb67555809, type: 2}
      propertyPath: m_LocalRotation.z
      value: -0.2662439
      objectReference: {fileID: 0}
    - target: {fileID: 401942, guid: 8902cc0c7910bcd4ab3ccacb67555809, type: 2}
      propertyPath: m_LocalRotation.w
      value: 0.6549228
      objectReference: {fileID: 0}
    - target: {fileID: 11439506, guid: 8902cc0c7910bcd4ab3ccacb67555809, type: 2}
      propertyPath: m_Delegates.Array.data[0].callback.m_PersistentCalls.m_Calls.Array.data[0].m_Target
      value: 
      objectReference: {fileID: 1094123812}
    - target: {fileID: 1000011809260392, guid: 8902cc0c7910bcd4ab3ccacb67555809, type: 2}
      propertyPath: m_IsActive
      value: 0
      objectReference: {fileID: 0}
    - target: {fileID: 1000010125470250, guid: 8902cc0c7910bcd4ab3ccacb67555809, type: 2}
      propertyPath: m_IsActive
      value: 1
      objectReference: {fileID: 0}
    - target: {fileID: 1000013644106482, guid: 8902cc0c7910bcd4ab3ccacb67555809, type: 2}
      propertyPath: m_StaticEditorFlags
      value: 4294967295
      objectReference: {fileID: 0}
    - target: {fileID: 1000013817075810, guid: 8902cc0c7910bcd4ab3ccacb67555809, type: 2}
      propertyPath: m_StaticEditorFlags
      value: 4294967295
      objectReference: {fileID: 0}
    - target: {fileID: 1000010953594216, guid: 8902cc0c7910bcd4ab3ccacb67555809, type: 2}
      propertyPath: m_StaticEditorFlags
      value: 4294967295
      objectReference: {fileID: 0}
    - target: {fileID: 1000013178173488, guid: 8902cc0c7910bcd4ab3ccacb67555809, type: 2}
      propertyPath: m_StaticEditorFlags
      value: 0
      objectReference: {fileID: 0}
    - target: {fileID: 1000011622339866, guid: 8902cc0c7910bcd4ab3ccacb67555809, type: 2}
      propertyPath: m_StaticEditorFlags
      value: 4294967295
      objectReference: {fileID: 0}
    - target: {fileID: 1000012727677572, guid: 8902cc0c7910bcd4ab3ccacb67555809, type: 2}
      propertyPath: m_StaticEditorFlags
      value: 4294967295
      objectReference: {fileID: 0}
    - target: {fileID: 1000011594884080, guid: 8902cc0c7910bcd4ab3ccacb67555809, type: 2}
      propertyPath: m_StaticEditorFlags
      value: 0
      objectReference: {fileID: 0}
    - target: {fileID: 1000012213709070, guid: 8902cc0c7910bcd4ab3ccacb67555809, type: 2}
      propertyPath: m_StaticEditorFlags
      value: 0
      objectReference: {fileID: 0}
    - target: {fileID: 1000013186571738, guid: 8902cc0c7910bcd4ab3ccacb67555809, type: 2}
      propertyPath: m_StaticEditorFlags
      value: 4294967295
      objectReference: {fileID: 0}
    - target: {fileID: 1000013780333780, guid: 8902cc0c7910bcd4ab3ccacb67555809, type: 2}
      propertyPath: m_StaticEditorFlags
      value: 4294967295
      objectReference: {fileID: 0}
    - target: {fileID: 1000012622077540, guid: 8902cc0c7910bcd4ab3ccacb67555809, type: 2}
      propertyPath: m_StaticEditorFlags
      value: 4294967295
      objectReference: {fileID: 0}
    - target: {fileID: 1000013333872850, guid: 8902cc0c7910bcd4ab3ccacb67555809, type: 2}
      propertyPath: m_StaticEditorFlags
      value: 0
      objectReference: {fileID: 0}
    - target: {fileID: 1000011843579408, guid: 8902cc0c7910bcd4ab3ccacb67555809, type: 2}
      propertyPath: m_StaticEditorFlags
      value: 4294967295
      objectReference: {fileID: 0}
    - target: {fileID: 1000010605808140, guid: 8902cc0c7910bcd4ab3ccacb67555809, type: 2}
      propertyPath: m_StaticEditorFlags
      value: 4294967295
      objectReference: {fileID: 0}
    - target: {fileID: 1000011312830942, guid: 8902cc0c7910bcd4ab3ccacb67555809, type: 2}
      propertyPath: m_StaticEditorFlags
      value: 4294967295
      objectReference: {fileID: 0}
    - target: {fileID: 1000011688780970, guid: 8902cc0c7910bcd4ab3ccacb67555809, type: 2}
      propertyPath: m_StaticEditorFlags
      value: 4294967295
      objectReference: {fileID: 0}
    - target: {fileID: 1000012173431702, guid: 8902cc0c7910bcd4ab3ccacb67555809, type: 2}
      propertyPath: m_StaticEditorFlags
      value: 4294967295
      objectReference: {fileID: 0}
    - target: {fileID: 1000010626101604, guid: 8902cc0c7910bcd4ab3ccacb67555809, type: 2}
      propertyPath: m_StaticEditorFlags
      value: 4294967295
      objectReference: {fileID: 0}
    - target: {fileID: 1000012173416270, guid: 8902cc0c7910bcd4ab3ccacb67555809, type: 2}
      propertyPath: m_StaticEditorFlags
      value: 4294967295
      objectReference: {fileID: 0}
    - target: {fileID: 1000011328732106, guid: 8902cc0c7910bcd4ab3ccacb67555809, type: 2}
      propertyPath: m_StaticEditorFlags
      value: 4294967295
      objectReference: {fileID: 0}
    - target: {fileID: 1000013268056558, guid: 8902cc0c7910bcd4ab3ccacb67555809, type: 2}
      propertyPath: m_StaticEditorFlags
      value: 0
      objectReference: {fileID: 0}
    - target: {fileID: 1000011096530410, guid: 8902cc0c7910bcd4ab3ccacb67555809, type: 2}
      propertyPath: m_StaticEditorFlags
      value: 4294967295
      objectReference: {fileID: 0}
    - target: {fileID: 1000014281765782, guid: 8902cc0c7910bcd4ab3ccacb67555809, type: 2}
      propertyPath: m_StaticEditorFlags
      value: 4294967295
      objectReference: {fileID: 0}
    - target: {fileID: 23000011670661526, guid: 8902cc0c7910bcd4ab3ccacb67555809,
        type: 2}
      propertyPath: m_ScaleInLightmap
      value: 0.01
      objectReference: {fileID: 0}
    - target: {fileID: 23000012214955340, guid: 8902cc0c7910bcd4ab3ccacb67555809,
        type: 2}
      propertyPath: m_ScaleInLightmap
      value: 0.001
      objectReference: {fileID: 0}
    - target: {fileID: 23000010534055926, guid: 8902cc0c7910bcd4ab3ccacb67555809,
        type: 2}
      propertyPath: m_ScaleInLightmap
      value: 2
      objectReference: {fileID: 0}
    - target: {fileID: 23000012697939786, guid: 8902cc0c7910bcd4ab3ccacb67555809,
        type: 2}
      propertyPath: m_ScaleInLightmap
      value: 2
      objectReference: {fileID: 0}
    - target: {fileID: 23000010540651908, guid: 8902cc0c7910bcd4ab3ccacb67555809,
        type: 2}
      propertyPath: m_ScaleInLightmap
      value: 0.5
      objectReference: {fileID: 0}
    - target: {fileID: 1000011328732106, guid: 8902cc0c7910bcd4ab3ccacb67555809, type: 2}
      propertyPath: m_Layer
      value: 8
      objectReference: {fileID: 0}
    - target: {fileID: 1000010605808140, guid: 8902cc0c7910bcd4ab3ccacb67555809, type: 2}
      propertyPath: m_Layer
      value: 8
      objectReference: {fileID: 0}
    - target: {fileID: 23000013488180032, guid: 8902cc0c7910bcd4ab3ccacb67555809,
        type: 2}
      propertyPath: m_Materials.Array.data[0]
      value: 
      objectReference: {fileID: 2100000, guid: 237e59587b8f1c641a0b736a82a2f342, type: 2}
    - target: {fileID: 23000013981064722, guid: 8902cc0c7910bcd4ab3ccacb67555809,
        type: 2}
      propertyPath: m_Materials.Array.data[0]
      value: 
      objectReference: {fileID: 2100000, guid: 45b8eaf0be0364a40b0b46fe8679696f, type: 2}
    m_RemovedComponents: []
  m_ParentPrefab: {fileID: 100100000, guid: 8902cc0c7910bcd4ab3ccacb67555809, type: 2}
  m_IsPrefabParent: 0
--- !u!1 &1043656358 stripped
GameObject:
  m_PrefabParentObject: {fileID: 1000013178173488, guid: 8902cc0c7910bcd4ab3ccacb67555809,
    type: 2}
  m_PrefabInternal: {fileID: 1043656357}
--- !u!1001 &1094123811
Prefab:
  m_ObjectHideFlags: 0
  serializedVersion: 2
  m_Modification:
    m_TransformParent: {fileID: 0}
    m_Modifications:
    - target: {fileID: 4000014075113472, guid: ab5f05eb414b65f4f9c285f785c1dfad, type: 2}
      propertyPath: m_LocalPosition.x
      value: -0.7
      objectReference: {fileID: 0}
    - target: {fileID: 4000014075113472, guid: ab5f05eb414b65f4f9c285f785c1dfad, type: 2}
      propertyPath: m_LocalPosition.y
      value: 0
      objectReference: {fileID: 0}
    - target: {fileID: 4000014075113472, guid: ab5f05eb414b65f4f9c285f785c1dfad, type: 2}
      propertyPath: m_LocalPosition.z
      value: 3.5
      objectReference: {fileID: 0}
    - target: {fileID: 4000014075113472, guid: ab5f05eb414b65f4f9c285f785c1dfad, type: 2}
      propertyPath: m_LocalRotation.x
      value: 0
      objectReference: {fileID: 0}
    - target: {fileID: 4000014075113472, guid: ab5f05eb414b65f4f9c285f785c1dfad, type: 2}
      propertyPath: m_LocalRotation.y
      value: -1
      objectReference: {fileID: 0}
    - target: {fileID: 4000014075113472, guid: ab5f05eb414b65f4f9c285f785c1dfad, type: 2}
      propertyPath: m_LocalRotation.z
      value: 0
      objectReference: {fileID: 0}
    - target: {fileID: 4000014075113472, guid: ab5f05eb414b65f4f9c285f785c1dfad, type: 2}
      propertyPath: m_LocalRotation.w
      value: -0.00000016292068
      objectReference: {fileID: 0}
    - target: {fileID: 4000014075113472, guid: ab5f05eb414b65f4f9c285f785c1dfad, type: 2}
      propertyPath: m_RootOrder
      value: 8
      objectReference: {fileID: 0}
    m_RemovedComponents: []
  m_ParentPrefab: {fileID: 100100000, guid: ab5f05eb414b65f4f9c285f785c1dfad, type: 2}
  m_IsPrefabParent: 0
--- !u!114 &1094123812 stripped
MonoBehaviour:
  m_PrefabParentObject: {fileID: 114000014294072012, guid: ab5f05eb414b65f4f9c285f785c1dfad,
    type: 2}
  m_PrefabInternal: {fileID: 1094123811}
  m_Script: {fileID: 11500000, guid: 29103d8075f789345997a0adb6a7520e, type: 3}
--- !u!1 &1094123813 stripped
GameObject:
  m_PrefabParentObject: {fileID: 1000014019507428, guid: ab5f05eb414b65f4f9c285f785c1dfad,
    type: 2}
  m_PrefabInternal: {fileID: 1094123811}
--- !u!114 &1094123814
MonoBehaviour:
  m_ObjectHideFlags: 0
  m_PrefabParentObject: {fileID: 0}
  m_PrefabInternal: {fileID: 0}
  m_GameObject: {fileID: 1094123813}
  m_Enabled: 1
  m_EditorHideFlags: 0
  m_Script: {fileID: 11500000, guid: 81163a5305a97a643a310485ff478118, type: 3}
  m_Name: 
  m_EditorClassIdentifier: 
  cursorDefault: {fileID: 2800000, guid: d135acffe55c1c641a500712062404d3, type: 3}
  cursorHover: {fileID: 2800000, guid: 7a9321be7ba45144f8e3ccd107078b67, type: 3}
--- !u!114 &1100553211
MonoBehaviour:
  m_ObjectHideFlags: 0
  m_PrefabParentObject: {fileID: 0}
  m_PrefabInternal: {fileID: 0}
  m_GameObject: {fileID: 0}
  m_Enabled: 1
  m_EditorHideFlags: 0
  m_Script: {fileID: 11500000, guid: 4900350095ceff24fbe8c1ac5f1e17c4, type: 3}
  m_Name: 
  m_EditorClassIdentifier: 
  description: LaserOff
  requiredConditions:
  - {fileID: 1192381676}
  reactionCollection: {fileID: 1114146747}
--- !u!1 &1114146746
GameObject:
  m_ObjectHideFlags: 0
  m_PrefabParentObject: {fileID: 0}
  m_PrefabInternal: {fileID: 0}
  serializedVersion: 5
  m_Component:
  - component: {fileID: 1114146748}
  - component: {fileID: 1114146747}
  m_Layer: 0
  m_Name: BeamsOffReaction
  m_TagString: Untagged
  m_Icon: {fileID: 0}
  m_NavMeshLayer: 0
  m_StaticEditorFlags: 0
  m_IsActive: 1
--- !u!114 &1114146747
MonoBehaviour:
  m_ObjectHideFlags: 0
  m_PrefabParentObject: {fileID: 0}
  m_PrefabInternal: {fileID: 0}
  m_GameObject: {fileID: 1114146746}
  m_Enabled: 1
  m_EditorHideFlags: 0
  m_Script: {fileID: 11500000, guid: 1fc7ecfe98531f2429694b8c81a6748a, type: 3}
  m_Name: 
  m_EditorClassIdentifier: 
  reactions:
  - {fileID: 1330737}
  - {fileID: 1906087159}
--- !u!4 &1114146748
Transform:
  m_ObjectHideFlags: 0
  m_PrefabParentObject: {fileID: 0}
  m_PrefabInternal: {fileID: 0}
  m_GameObject: {fileID: 1114146746}
  m_LocalRotation: {x: 0, y: 0, z: 0, w: 1}
  m_LocalPosition: {x: 0, y: 0, z: 0}
  m_LocalScale: {x: 1, y: 1, z: 1}
  m_Children: []
  m_Father: {fileID: 1276257939}
  m_RootOrder: 2
  m_LocalEulerAnglesHint: {x: 0, y: 0, z: 0}
--- !u!114 &1147711796
MonoBehaviour:
  m_ObjectHideFlags: 0
  m_PrefabParentObject: {fileID: 0}
  m_PrefabInternal: {fileID: 0}
  m_GameObject: {fileID: 0}
  m_Enabled: 1
  m_EditorHideFlags: 0
  m_Script: {fileID: 11500000, guid: a931d1c243b462c46bad5f7d2aae5949, type: 3}
  m_Name: 
  m_EditorClassIdentifier: 
  delay: 0
  animator: {fileID: 0}
  trigger: 
--- !u!1001 &1183915326
Prefab:
  m_ObjectHideFlags: 0
  serializedVersion: 2
  m_Modification:
    m_TransformParent: {fileID: 0}
    m_Modifications:
    - target: {fileID: 22402318, guid: bd26dac15723bf047941895f28e6c242, type: 2}
      propertyPath: m_LocalPosition.x
      value: 0
      objectReference: {fileID: 0}
    - target: {fileID: 22402318, guid: bd26dac15723bf047941895f28e6c242, type: 2}
      propertyPath: m_LocalPosition.y
      value: 0
      objectReference: {fileID: 0}
    - target: {fileID: 22402318, guid: bd26dac15723bf047941895f28e6c242, type: 2}
      propertyPath: m_LocalPosition.z
      value: 0
      objectReference: {fileID: 0}
    - target: {fileID: 22402318, guid: bd26dac15723bf047941895f28e6c242, type: 2}
      propertyPath: m_LocalRotation.x
      value: 0
      objectReference: {fileID: 0}
    - target: {fileID: 22402318, guid: bd26dac15723bf047941895f28e6c242, type: 2}
      propertyPath: m_LocalRotation.y
      value: 0
      objectReference: {fileID: 0}
    - target: {fileID: 22402318, guid: bd26dac15723bf047941895f28e6c242, type: 2}
      propertyPath: m_LocalRotation.z
      value: 0
      objectReference: {fileID: 0}
    - target: {fileID: 22402318, guid: bd26dac15723bf047941895f28e6c242, type: 2}
      propertyPath: m_LocalRotation.w
      value: 1
      objectReference: {fileID: 0}
    - target: {fileID: 22402318, guid: bd26dac15723bf047941895f28e6c242, type: 2}
      propertyPath: m_RootOrder
      value: 0
      objectReference: {fileID: 0}
    - target: {fileID: 22402318, guid: bd26dac15723bf047941895f28e6c242, type: 2}
      propertyPath: m_AnchoredPosition.x
      value: 0
      objectReference: {fileID: 0}
    - target: {fileID: 22402318, guid: bd26dac15723bf047941895f28e6c242, type: 2}
      propertyPath: m_AnchoredPosition.y
      value: 0
      objectReference: {fileID: 0}
    - target: {fileID: 22402318, guid: bd26dac15723bf047941895f28e6c242, type: 2}
      propertyPath: m_SizeDelta.x
      value: 0
      objectReference: {fileID: 0}
    - target: {fileID: 22402318, guid: bd26dac15723bf047941895f28e6c242, type: 2}
      propertyPath: m_SizeDelta.y
      value: 0
      objectReference: {fileID: 0}
    - target: {fileID: 22402318, guid: bd26dac15723bf047941895f28e6c242, type: 2}
      propertyPath: m_AnchorMin.x
      value: 0
      objectReference: {fileID: 0}
    - target: {fileID: 22402318, guid: bd26dac15723bf047941895f28e6c242, type: 2}
      propertyPath: m_AnchorMin.y
      value: 0
      objectReference: {fileID: 0}
    - target: {fileID: 22402318, guid: bd26dac15723bf047941895f28e6c242, type: 2}
      propertyPath: m_AnchorMax.x
      value: 0
      objectReference: {fileID: 0}
    - target: {fileID: 22402318, guid: bd26dac15723bf047941895f28e6c242, type: 2}
      propertyPath: m_AnchorMax.y
      value: 0
      objectReference: {fileID: 0}
    - target: {fileID: 22402318, guid: bd26dac15723bf047941895f28e6c242, type: 2}
      propertyPath: m_Pivot.x
      value: 0
      objectReference: {fileID: 0}
    - target: {fileID: 22402318, guid: bd26dac15723bf047941895f28e6c242, type: 2}
      propertyPath: m_Pivot.y
      value: 0
      objectReference: {fileID: 0}
    m_RemovedComponents: []
  m_ParentPrefab: {fileID: 100100000, guid: bd26dac15723bf047941895f28e6c242, type: 2}
  m_IsPrefabParent: 0
--- !u!114 &1192381676
MonoBehaviour:
  m_ObjectHideFlags: 0
  m_PrefabParentObject: {fileID: 0}
  m_PrefabInternal: {fileID: 0}
  m_GameObject: {fileID: 0}
  m_Enabled: 1
  m_EditorHideFlags: 0
  m_Script: {fileID: 11500000, guid: 48c14b7cdc8cc6347b3a5d48d05c9c85, type: 3}
  m_Name: 
  m_EditorClassIdentifier: 
  description: LasersDeactivated
  satisfied: 1
  hash: -2015270594
--- !u!114 &1231559414
MonoBehaviour:
  m_ObjectHideFlags: 0
  m_PrefabParentObject: {fileID: 0}
  m_PrefabInternal: {fileID: 0}
  m_GameObject: {fileID: 0}
  m_Enabled: 1
  m_EditorHideFlags: 0
  m_Script: {fileID: 11500000, guid: a931d1c243b462c46bad5f7d2aae5949, type: 3}
  m_Name: 
  m_EditorClassIdentifier: 
  delay: 0
  animator: {fileID: 0}
  trigger: 
--- !u!114 &1272427429
MonoBehaviour:
  m_ObjectHideFlags: 0
  m_PrefabParentObject: {fileID: 0}
  m_PrefabInternal: {fileID: 0}
  m_GameObject: {fileID: 0}
  m_Enabled: 1
  m_EditorHideFlags: 0
  m_Script: {fileID: 11500000, guid: 03f8a149ea5a3aa4583dc1cab3334cbc, type: 3}
  m_Name: 
  m_EditorClassIdentifier: 
  message: He looks pretty trustworthy.
  textColor: {r: 1, g: 1, b: 1, a: 1}
  delay: 0
--- !u!1001 &1276257937
Prefab:
  m_ObjectHideFlags: 0
  serializedVersion: 2
  m_Modification:
    m_TransformParent: {fileID: 0}
    m_Modifications:
    - target: {fileID: 11441280, guid: d48734bd22479a14cb1a52b40aa09db4, type: 2}
      propertyPath: reactions.Array.size
      value: 2
      objectReference: {fileID: 0}
    - target: {fileID: 11485606, guid: d48734bd22479a14cb1a52b40aa09db4, type: 2}
      propertyPath: m_Delegates.Array.size
      value: 3
      objectReference: {fileID: 0}
    - target: {fileID: 11484708, guid: d48734bd22479a14cb1a52b40aa09db4, type: 2}
      propertyPath: conditionCollections.Array.size
      value: 1
      objectReference: {fileID: 0}
    - target: {fileID: 11484708, guid: d48734bd22479a14cb1a52b40aa09db4, type: 2}
      propertyPath: conditionCollections.Array.data[0].conditions.Array.size
      value: 1
      objectReference: {fileID: 0}
    - target: {fileID: 11485606, guid: d48734bd22479a14cb1a52b40aa09db4, type: 2}
      propertyPath: m_Delegates.Array.data[1].callback.m_PersistentCalls.m_Calls.Array.size
      value: 1
      objectReference: {fileID: 0}
    - target: {fileID: 11485606, guid: d48734bd22479a14cb1a52b40aa09db4, type: 2}
      propertyPath: m_Delegates.Array.data[2].callback.m_PersistentCalls.m_Calls.Array.size
      value: 1
      objectReference: {fileID: 0}
    - target: {fileID: 474418, guid: d48734bd22479a14cb1a52b40aa09db4, type: 2}
      propertyPath: m_LocalPosition.x
      value: -3.94
      objectReference: {fileID: 0}
    - target: {fileID: 474418, guid: d48734bd22479a14cb1a52b40aa09db4, type: 2}
      propertyPath: m_LocalPosition.y
      value: 0
      objectReference: {fileID: 0}
    - target: {fileID: 474418, guid: d48734bd22479a14cb1a52b40aa09db4, type: 2}
      propertyPath: m_LocalPosition.z
      value: -4
      objectReference: {fileID: 0}
    - target: {fileID: 474418, guid: d48734bd22479a14cb1a52b40aa09db4, type: 2}
      propertyPath: m_LocalRotation.x
      value: 0
      objectReference: {fileID: 0}
    - target: {fileID: 474418, guid: d48734bd22479a14cb1a52b40aa09db4, type: 2}
      propertyPath: m_LocalRotation.y
      value: 0
      objectReference: {fileID: 0}
    - target: {fileID: 474418, guid: d48734bd22479a14cb1a52b40aa09db4, type: 2}
      propertyPath: m_LocalRotation.z
      value: 0
      objectReference: {fileID: 0}
    - target: {fileID: 474418, guid: d48734bd22479a14cb1a52b40aa09db4, type: 2}
      propertyPath: m_LocalRotation.w
      value: 1
      objectReference: {fileID: 0}
    - target: {fileID: 474418, guid: d48734bd22479a14cb1a52b40aa09db4, type: 2}
      propertyPath: m_RootOrder
      value: 5
      objectReference: {fileID: 0}
    - target: {fileID: 11485606, guid: d48734bd22479a14cb1a52b40aa09db4, type: 2}
      propertyPath: m_Delegates.Array.data[0].callback.m_PersistentCalls.m_Calls.Array.data[0].m_Target
      value: 
      objectReference: {fileID: 1094123812}
    - target: {fileID: 11485606, guid: d48734bd22479a14cb1a52b40aa09db4, type: 2}
      propertyPath: m_Delegates.Array.data[0].callback.m_PersistentCalls.m_Calls.Array.data[0].m_MethodName
      value: OnInteractableClick
      objectReference: {fileID: 0}
    - target: {fileID: 11485606, guid: d48734bd22479a14cb1a52b40aa09db4, type: 2}
      propertyPath: m_Delegates.Array.data[0].callback.m_PersistentCalls.m_Calls.Array.data[0].m_Mode
      value: 2
      objectReference: {fileID: 0}
    - target: {fileID: 11485606, guid: d48734bd22479a14cb1a52b40aa09db4, type: 2}
      propertyPath: m_Delegates.Array.data[0].callback.m_PersistentCalls.m_Calls.Array.data[0].m_Arguments.m_ObjectArgumentAssemblyTypeName
      value: Interactable, Assembly-CSharp
      objectReference: {fileID: 0}
    - target: {fileID: 11485606, guid: d48734bd22479a14cb1a52b40aa09db4, type: 2}
      propertyPath: m_Delegates.Array.data[0].callback.m_PersistentCalls.m_Calls.Array.data[0].m_Arguments.m_ObjectArgument
      value: 
      objectReference: {fileID: 1276257938}
    - target: {fileID: 194222, guid: d48734bd22479a14cb1a52b40aa09db4, type: 2}
      propertyPath: m_Name
      value: LaserGridInteractable
      objectReference: {fileID: 0}
    - target: {fileID: 11484708, guid: d48734bd22479a14cb1a52b40aa09db4, type: 2}
      propertyPath: conditionCollections.Array.data[0].description
      value: Beams Off
      objectReference: {fileID: 0}
    - target: {fileID: 11484708, guid: d48734bd22479a14cb1a52b40aa09db4, type: 2}
      propertyPath: conditionCollections.Array.data[0].conditions.Array.data[0].condition
      value: 
      objectReference: {fileID: 11400000, guid: e103e04006611934e83a070f62f2d7ab,
        type: 2}
    - target: {fileID: 11484708, guid: d48734bd22479a14cb1a52b40aa09db4, type: 2}
      propertyPath: conditionCollections.Array.data[0].conditions.Array.data[0].objectToCheck
      value: 
      objectReference: {fileID: 0}
    - target: {fileID: 11484708, guid: d48734bd22479a14cb1a52b40aa09db4, type: 2}
      propertyPath: conditionCollections.Array.data[0].reaction
      value: 
      objectReference: {fileID: 1114146747}
    - target: {fileID: 6512962, guid: d48734bd22479a14cb1a52b40aa09db4, type: 2}
      propertyPath: m_Size.x
      value: 2
      objectReference: {fileID: 0}
    - target: {fileID: 6512962, guid: d48734bd22479a14cb1a52b40aa09db4, type: 2}
      propertyPath: m_Size.y
      value: 2.5
      objectReference: {fileID: 0}
    - target: {fileID: 6512962, guid: d48734bd22479a14cb1a52b40aa09db4, type: 2}
      propertyPath: m_Size.z
      value: 0.2
      objectReference: {fileID: 0}
    - target: {fileID: 6512962, guid: d48734bd22479a14cb1a52b40aa09db4, type: 2}
      propertyPath: m_Center.y
      value: 1.25
      objectReference: {fileID: 0}
    - target: {fileID: 491826, guid: d48734bd22479a14cb1a52b40aa09db4, type: 2}
      propertyPath: m_LocalRotation.y
      value: 1
      objectReference: {fileID: 0}
    - target: {fileID: 491826, guid: d48734bd22479a14cb1a52b40aa09db4, type: 2}
      propertyPath: m_LocalRotation.w
      value: -0.00000016292068
      objectReference: {fileID: 0}
    - target: {fileID: 491826, guid: d48734bd22479a14cb1a52b40aa09db4, type: 2}
      propertyPath: m_LocalPosition.z
      value: 1
      objectReference: {fileID: 0}
    - target: {fileID: 491826, guid: d48734bd22479a14cb1a52b40aa09db4, type: 2}
      propertyPath: m_LocalEulerAnglesHint.y
      value: -180
      objectReference: {fileID: 0}
    - target: {fileID: 11441280, guid: d48734bd22479a14cb1a52b40aa09db4, type: 2}
      propertyPath: reactions.Array.data[0]
      value: 
      objectReference: {fileID: 1340991283}
    - target: {fileID: 11441280, guid: d48734bd22479a14cb1a52b40aa09db4, type: 2}
      propertyPath: reactions.Array.data[1]
      value: 
      objectReference: {fileID: 682091567}
    - target: {fileID: 11441280, guid: d48734bd22479a14cb1a52b40aa09db4, type: 2}
      propertyPath: reactions.Array.data[2]
      value: 
      objectReference: {fileID: 1921767126}
    - target: {fileID: 11484708, guid: d48734bd22479a14cb1a52b40aa09db4, type: 2}
      propertyPath: conditionCollections.Array.data[0]
      value: 
      objectReference: {fileID: 1100553211}
    - target: {fileID: 11484708, guid: d48734bd22479a14cb1a52b40aa09db4, type: 2}
      propertyPath: interactionLocation
      value: 
      objectReference: {fileID: 1276257942}
    - target: {fileID: 11484708, guid: d48734bd22479a14cb1a52b40aa09db4, type: 2}
      propertyPath: defaultReaction
      value: 
      objectReference: {fileID: 1276257941}
    - target: {fileID: 11485606, guid: d48734bd22479a14cb1a52b40aa09db4, type: 2}
      propertyPath: m_Delegates.Array.data[1].callback.m_PersistentCalls.m_Calls.Array.data[0].m_Target
      value: 
      objectReference: {fileID: 1094123814}
    - target: {fileID: 11485606, guid: d48734bd22479a14cb1a52b40aa09db4, type: 2}
      propertyPath: m_Delegates.Array.data[1].callback.m_PersistentCalls.m_Calls.Array.data[0].m_MethodName
      value: OnPointerEnter
      objectReference: {fileID: 0}
    - target: {fileID: 11485606, guid: d48734bd22479a14cb1a52b40aa09db4, type: 2}
      propertyPath: m_Delegates.Array.data[1].callback.m_PersistentCalls.m_Calls.Array.data[0].m_Mode
      value: 1
      objectReference: {fileID: 0}
    - target: {fileID: 11485606, guid: d48734bd22479a14cb1a52b40aa09db4, type: 2}
      propertyPath: m_Delegates.Array.data[1].callback.m_PersistentCalls.m_Calls.Array.data[0].m_Arguments.m_ObjectArgument
      value: 
      objectReference: {fileID: 0}
    - target: {fileID: 11485606, guid: d48734bd22479a14cb1a52b40aa09db4, type: 2}
      propertyPath: m_Delegates.Array.data[1].callback.m_PersistentCalls.m_Calls.Array.data[0].m_Arguments.m_ObjectArgumentAssemblyTypeName
      value: UnityEngine.Object, UnityEngine
      objectReference: {fileID: 0}
    - target: {fileID: 11485606, guid: d48734bd22479a14cb1a52b40aa09db4, type: 2}
      propertyPath: m_Delegates.Array.data[1].callback.m_PersistentCalls.m_Calls.Array.data[0].m_CallState
      value: 2
      objectReference: {fileID: 0}
    - target: {fileID: 11485606, guid: d48734bd22479a14cb1a52b40aa09db4, type: 2}
      propertyPath: m_Delegates.Array.data[1].callback.m_TypeName
      value: UnityEngine.EventSystems.EventTrigger+TriggerEvent, UnityEngine.UI, Version=1.0.0.0,
        Culture=neutral, PublicKeyToken=null
      objectReference: {fileID: 0}
    - target: {fileID: 11485606, guid: d48734bd22479a14cb1a52b40aa09db4, type: 2}
      propertyPath: m_Delegates.Array.data[2].eventID
      value: 1
      objectReference: {fileID: 0}
    - target: {fileID: 11485606, guid: d48734bd22479a14cb1a52b40aa09db4, type: 2}
      propertyPath: m_Delegates.Array.data[2].callback.m_PersistentCalls.m_Calls.Array.data[0].m_Target
      value: 
      objectReference: {fileID: 1094123814}
    - target: {fileID: 11485606, guid: d48734bd22479a14cb1a52b40aa09db4, type: 2}
      propertyPath: m_Delegates.Array.data[2].callback.m_PersistentCalls.m_Calls.Array.data[0].m_MethodName
      value: OnPointerExit
      objectReference: {fileID: 0}
    - target: {fileID: 11485606, guid: d48734bd22479a14cb1a52b40aa09db4, type: 2}
      propertyPath: m_Delegates.Array.data[2].callback.m_PersistentCalls.m_Calls.Array.data[0].m_Mode
      value: 1
      objectReference: {fileID: 0}
    - target: {fileID: 11485606, guid: d48734bd22479a14cb1a52b40aa09db4, type: 2}
      propertyPath: m_Delegates.Array.data[2].callback.m_PersistentCalls.m_Calls.Array.data[0].m_Arguments.m_ObjectArgument
      value: 
      objectReference: {fileID: 0}
    - target: {fileID: 11485606, guid: d48734bd22479a14cb1a52b40aa09db4, type: 2}
      propertyPath: m_Delegates.Array.data[2].callback.m_PersistentCalls.m_Calls.Array.data[0].m_Arguments.m_ObjectArgumentAssemblyTypeName
      value: UnityEngine.Object, UnityEngine
      objectReference: {fileID: 0}
    - target: {fileID: 11485606, guid: d48734bd22479a14cb1a52b40aa09db4, type: 2}
      propertyPath: m_Delegates.Array.data[2].callback.m_PersistentCalls.m_Calls.Array.data[0].m_CallState
      value: 2
      objectReference: {fileID: 0}
    - target: {fileID: 11485606, guid: d48734bd22479a14cb1a52b40aa09db4, type: 2}
      propertyPath: m_Delegates.Array.data[2].callback.m_TypeName
      value: UnityEngine.EventSystems.EventTrigger+TriggerEvent, UnityEngine.UI, Version=1.0.0.0,
        Culture=neutral, PublicKeyToken=null
      objectReference: {fileID: 0}
    m_RemovedComponents: []
  m_ParentPrefab: {fileID: 100100000, guid: d48734bd22479a14cb1a52b40aa09db4, type: 2}
  m_IsPrefabParent: 0
--- !u!114 &1276257938 stripped
MonoBehaviour:
  m_PrefabParentObject: {fileID: 11484708, guid: d48734bd22479a14cb1a52b40aa09db4,
    type: 2}
  m_PrefabInternal: {fileID: 1276257937}
  m_Script: {fileID: 11500000, guid: d85941078afdf3244b2a1ae50fea256c, type: 3}
--- !u!4 &1276257939 stripped
Transform:
  m_PrefabParentObject: {fileID: 474418, guid: d48734bd22479a14cb1a52b40aa09db4, type: 2}
  m_PrefabInternal: {fileID: 1276257937}
--- !u!1 &1276257940 stripped
GameObject:
  m_PrefabParentObject: {fileID: 194222, guid: d48734bd22479a14cb1a52b40aa09db4, type: 2}
  m_PrefabInternal: {fileID: 1276257937}
--- !u!114 &1276257941 stripped
MonoBehaviour:
  m_PrefabParentObject: {fileID: 11441280, guid: d48734bd22479a14cb1a52b40aa09db4,
    type: 2}
  m_PrefabInternal: {fileID: 1276257937}
  m_Script: {fileID: 11500000, guid: 1fc7ecfe98531f2429694b8c81a6748a, type: 3}
--- !u!4 &1276257942 stripped
Transform:
  m_PrefabParentObject: {fileID: 491826, guid: d48734bd22479a14cb1a52b40aa09db4, type: 2}
  m_PrefabInternal: {fileID: 1276257937}
--- !u!114 &1283123098
MonoBehaviour:
  m_ObjectHideFlags: 0
  m_PrefabParentObject: {fileID: 0}
  m_PrefabInternal: {fileID: 0}
  m_GameObject: {fileID: 0}
  m_Enabled: 1
  m_EditorHideFlags: 0
  m_Script: {fileID: 11500000, guid: 4900350095ceff24fbe8c1ac5f1e17c4, type: 3}
  m_Name: 
  m_EditorClassIdentifier: 
  description: HasGlasses
  requiredConditions:
  - {fileID: 923580822}
  reactionCollection: {fileID: 1955368934}
--- !u!114 &1340991283
MonoBehaviour:
  m_ObjectHideFlags: 0
  m_PrefabParentObject: {fileID: 0}
  m_PrefabInternal: {fileID: 0}
  m_GameObject: {fileID: 0}
  m_Enabled: 1
  m_EditorHideFlags: 0
  m_Script: {fileID: 11500000, guid: 03f8a149ea5a3aa4583dc1cab3334cbc, type: 3}
  m_Name: 
  m_EditorClassIdentifier: 
  message: ACCESS DENIED!
  textColor: {r: 1, g: 0, b: 0, a: 1}
  delay: 0
--- !u!114 &1497693457
MonoBehaviour:
  m_ObjectHideFlags: 0
  m_PrefabParentObject: {fileID: 0}
  m_PrefabInternal: {fileID: 0}
  m_GameObject: {fileID: 0}
  m_Enabled: 1
  m_EditorHideFlags: 0
  m_Script: {fileID: 11500000, guid: 48c14b7cdc8cc6347b3a5d48d05c9c85, type: 3}
  m_Name: 
  m_EditorClassIdentifier: 
  description: pouabv
  satisfied: 0
  hash: 0
--- !u!1 &1536750085
GameObject:
  m_ObjectHideFlags: 0
  m_PrefabParentObject: {fileID: 0}
  m_PrefabInternal: {fileID: 0}
  serializedVersion: 5
  m_Component:
  - component: {fileID: 1536750087}
  - component: {fileID: 1536750086}
  m_Layer: 0
  m_Name: DoorToMarketStartingPosition
  m_TagString: Untagged
  m_Icon: {fileID: 0}
  m_NavMeshLayer: 0
  m_StaticEditorFlags: 0
  m_IsActive: 1
--- !u!114 &1536750086
MonoBehaviour:
  m_ObjectHideFlags: 0
  m_PrefabParentObject: {fileID: 0}
  m_PrefabInternal: {fileID: 0}
  m_GameObject: {fileID: 1536750085}
  m_Enabled: 1
  m_EditorHideFlags: 0
  m_Script: {fileID: 11500000, guid: 2a1a9400b6609fb4aba06d78b45ca76c, type: 3}
  m_Name: 
  m_EditorClassIdentifier: 
  startingPointName: DoorToMarket
--- !u!4 &1536750087
Transform:
  m_ObjectHideFlags: 0
  m_PrefabParentObject: {fileID: 0}
  m_PrefabInternal: {fileID: 0}
  m_GameObject: {fileID: 1536750085}
  m_LocalRotation: {x: 0, y: 1, z: 0, w: 0}
  m_LocalPosition: {x: -0.7, y: 0.02, z: 4.5}
  m_LocalScale: {x: 1, y: 1, z: 1}
  m_Children: []
  m_Father: {fileID: 0}
  m_RootOrder: 7
  m_LocalEulerAnglesHint: {x: 0, y: 180, z: 0}
--- !u!114 &1548132460
MonoBehaviour:
  m_ObjectHideFlags: 0
  m_PrefabParentObject: {fileID: 0}
  m_PrefabInternal: {fileID: 0}
  m_GameObject: {fileID: 0}
  m_Enabled: 1
  m_EditorHideFlags: 0
  m_Script: {fileID: 11500000, guid: 24dc6b17b276d6948903ade30dec71eb, type: 3}
  m_Name: 
  m_EditorClassIdentifier: 
  sceneName: Market
  startingPointInLoadedScene: DoorToSecurityRoom
  playerSaveData: {fileID: 11400000, guid: 55d72825bf06cf44e9cbc1b37812cc6f, type: 2}
--- !u!114 &1578821600
MonoBehaviour:
  m_ObjectHideFlags: 0
  m_PrefabParentObject: {fileID: 0}
  m_PrefabInternal: {fileID: 0}
  m_GameObject: {fileID: 0}
  m_Enabled: 1
  m_EditorHideFlags: 0
  m_Script: {fileID: 11500000, guid: a931d1c243b462c46bad5f7d2aae5949, type: 3}
  m_Name: 
  m_EditorClassIdentifier: 
  delay: 0
  animator: {fileID: 0}
  trigger: 
--- !u!114 &1610222598
MonoBehaviour:
  m_ObjectHideFlags: 0
  m_PrefabParentObject: {fileID: 0}
  m_PrefabInternal: {fileID: 0}
  m_GameObject: {fileID: 0}
  m_Enabled: 1
  m_EditorHideFlags: 0
  m_Script: {fileID: 11500000, guid: a931d1c243b462c46bad5f7d2aae5949, type: 3}
  m_Name: 
  m_EditorClassIdentifier: 
  delay: 0
  animator: {fileID: 0}
  trigger: 
--- !u!1 &1627901430
GameObject:
  m_ObjectHideFlags: 0
  m_PrefabParentObject: {fileID: 105628, guid: d48734bd22479a14cb1a52b40aa09db4, type: 2}
  m_PrefabInternal: {fileID: 0}
  serializedVersion: 5
  m_Component:
  - component: {fileID: 1627901431}
  - component: {fileID: 1627901432}
  m_Layer: 0
  m_Name: GlassesAndCoffeeReaction
  m_TagString: Untagged
  m_Icon: {fileID: 0}
  m_NavMeshLayer: 0
  m_StaticEditorFlags: 0
  m_IsActive: 1
--- !u!4 &1627901431
Transform:
  m_ObjectHideFlags: 0
  m_PrefabParentObject: {fileID: 424910, guid: d48734bd22479a14cb1a52b40aa09db4, type: 2}
  m_PrefabInternal: {fileID: 0}
  m_GameObject: {fileID: 1627901430}
  m_LocalRotation: {x: 0, y: 0, z: 0, w: 1}
  m_LocalPosition: {x: 0, y: 0, z: 0}
  m_LocalScale: {x: 1, y: 1, z: 1}
  m_Children: []
  m_Father: {fileID: 1746140239}
  m_RootOrder: 2
  m_LocalEulerAnglesHint: {x: 0, y: 0, z: 0}
--- !u!114 &1627901432
MonoBehaviour:
  m_ObjectHideFlags: 0
  m_PrefabParentObject: {fileID: 11441280, guid: d48734bd22479a14cb1a52b40aa09db4,
    type: 2}
  m_PrefabInternal: {fileID: 0}
  m_GameObject: {fileID: 1627901430}
  m_Enabled: 1
  m_EditorHideFlags: 0
  m_Script: {fileID: 11500000, guid: 1fc7ecfe98531f2429694b8c81a6748a, type: 3}
  m_Name: 
  m_EditorClassIdentifier: 
  reactions:
  - {fileID: 832231904}
  - {fileID: 639733709}
  - {fileID: 503792339}
  - {fileID: 795348259}
  - {fileID: 1906371743}
--- !u!114 &1651130631
MonoBehaviour:
  m_ObjectHideFlags: 0
  m_PrefabParentObject: {fileID: 0}
  m_PrefabInternal: {fileID: 0}
  m_GameObject: {fileID: 0}
  m_Enabled: 1
  m_EditorHideFlags: 0
  m_Script: {fileID: 11500000, guid: 4900350095ceff24fbe8c1ac5f1e17c4, type: 3}
  m_Name: 
  m_EditorClassIdentifier: 
  description: HasGlassesAndCoffee
  requiredConditions:
  - {fileID: 227469776}
  - {fileID: 2070106622}
  reactionCollection: {fileID: 1627901432}
--- !u!1001 &1746140237
Prefab:
  m_ObjectHideFlags: 0
  serializedVersion: 2
  m_Modification:
    m_TransformParent: {fileID: 0}
    m_Modifications:
    - target: {fileID: 11441280, guid: d48734bd22479a14cb1a52b40aa09db4, type: 2}
      propertyPath: reactions.Array.size
      value: 2
      objectReference: {fileID: 0}
    - target: {fileID: 11485606, guid: d48734bd22479a14cb1a52b40aa09db4, type: 2}
      propertyPath: m_Delegates.Array.size
      value: 3
      objectReference: {fileID: 0}
    - target: {fileID: 11484708, guid: d48734bd22479a14cb1a52b40aa09db4, type: 2}
      propertyPath: conditionCollections.Array.size
      value: 2
      objectReference: {fileID: 0}
    - target: {fileID: 11484708, guid: d48734bd22479a14cb1a52b40aa09db4, type: 2}
      propertyPath: conditionCollections.Array.data[0].conditions.Array.size
      value: 2
      objectReference: {fileID: 0}
    - target: {fileID: 11484708, guid: d48734bd22479a14cb1a52b40aa09db4, type: 2}
      propertyPath: conditionCollections.Array.data[1].conditions.Array.size
      value: 1
      objectReference: {fileID: 0}
    - target: {fileID: 11485606, guid: d48734bd22479a14cb1a52b40aa09db4, type: 2}
      propertyPath: m_Delegates.Array.data[1].callback.m_PersistentCalls.m_Calls.Array.size
      value: 1
      objectReference: {fileID: 0}
    - target: {fileID: 11485606, guid: d48734bd22479a14cb1a52b40aa09db4, type: 2}
      propertyPath: m_Delegates.Array.data[2].callback.m_PersistentCalls.m_Calls.Array.size
      value: 1
      objectReference: {fileID: 0}
    - target: {fileID: 474418, guid: d48734bd22479a14cb1a52b40aa09db4, type: 2}
      propertyPath: m_LocalPosition.x
      value: -0.571
      objectReference: {fileID: 0}
    - target: {fileID: 474418, guid: d48734bd22479a14cb1a52b40aa09db4, type: 2}
      propertyPath: m_LocalPosition.y
      value: 0
      objectReference: {fileID: 0}
    - target: {fileID: 474418, guid: d48734bd22479a14cb1a52b40aa09db4, type: 2}
      propertyPath: m_LocalPosition.z
      value: -3.09
      objectReference: {fileID: 0}
    - target: {fileID: 474418, guid: d48734bd22479a14cb1a52b40aa09db4, type: 2}
      propertyPath: m_LocalRotation.x
      value: 0
      objectReference: {fileID: 0}
    - target: {fileID: 474418, guid: d48734bd22479a14cb1a52b40aa09db4, type: 2}
      propertyPath: m_LocalRotation.y
      value: 0
      objectReference: {fileID: 0}
    - target: {fileID: 474418, guid: d48734bd22479a14cb1a52b40aa09db4, type: 2}
      propertyPath: m_LocalRotation.z
      value: 0
      objectReference: {fileID: 0}
    - target: {fileID: 474418, guid: d48734bd22479a14cb1a52b40aa09db4, type: 2}
      propertyPath: m_LocalRotation.w
      value: 1
      objectReference: {fileID: 0}
    - target: {fileID: 474418, guid: d48734bd22479a14cb1a52b40aa09db4, type: 2}
      propertyPath: m_RootOrder
      value: 6
      objectReference: {fileID: 0}
    - target: {fileID: 11485606, guid: d48734bd22479a14cb1a52b40aa09db4, type: 2}
      propertyPath: m_Delegates.Array.data[0].callback.m_PersistentCalls.m_Calls.Array.data[0].m_Target
      value: 
      objectReference: {fileID: 1094123812}
    - target: {fileID: 11485606, guid: d48734bd22479a14cb1a52b40aa09db4, type: 2}
      propertyPath: m_Delegates.Array.data[0].callback.m_PersistentCalls.m_Calls.Array.data[0].m_MethodName
      value: OnInteractableClick
      objectReference: {fileID: 0}
    - target: {fileID: 11485606, guid: d48734bd22479a14cb1a52b40aa09db4, type: 2}
      propertyPath: m_Delegates.Array.data[0].callback.m_PersistentCalls.m_Calls.Array.data[0].m_Mode
      value: 2
      objectReference: {fileID: 0}
    - target: {fileID: 11485606, guid: d48734bd22479a14cb1a52b40aa09db4, type: 2}
      propertyPath: m_Delegates.Array.data[0].callback.m_PersistentCalls.m_Calls.Array.data[0].m_Arguments.m_ObjectArgumentAssemblyTypeName
      value: Interactable, Assembly-CSharp
      objectReference: {fileID: 0}
    - target: {fileID: 11485606, guid: d48734bd22479a14cb1a52b40aa09db4, type: 2}
      propertyPath: m_Delegates.Array.data[0].callback.m_PersistentCalls.m_Calls.Array.data[0].m_Arguments.m_ObjectArgument
      value: 
      objectReference: {fileID: 1746140238}
    - target: {fileID: 194222, guid: d48734bd22479a14cb1a52b40aa09db4, type: 2}
      propertyPath: m_Name
      value: GuardInteractable
      objectReference: {fileID: 0}
    - target: {fileID: 6512962, guid: d48734bd22479a14cb1a52b40aa09db4, type: 2}
      propertyPath: m_Size.x
      value: 1.6
      objectReference: {fileID: 0}
    - target: {fileID: 6512962, guid: d48734bd22479a14cb1a52b40aa09db4, type: 2}
      propertyPath: m_Size.y
      value: 1.8
      objectReference: {fileID: 0}
    - target: {fileID: 6512962, guid: d48734bd22479a14cb1a52b40aa09db4, type: 2}
      propertyPath: m_Size.z
      value: 0.7
      objectReference: {fileID: 0}
    - target: {fileID: 6512962, guid: d48734bd22479a14cb1a52b40aa09db4, type: 2}
      propertyPath: m_Center.y
      value: 0.9
      objectReference: {fileID: 0}
    - target: {fileID: 11484708, guid: d48734bd22479a14cb1a52b40aa09db4, type: 2}
      propertyPath: conditionCollections.Array.data[0].description
      value: Glasses and Coffee
      objectReference: {fileID: 0}
    - target: {fileID: 11484708, guid: d48734bd22479a14cb1a52b40aa09db4, type: 2}
      propertyPath: conditionCollections.Array.data[1].description
      value: Glasses
      objectReference: {fileID: 0}
    - target: {fileID: 11484708, guid: d48734bd22479a14cb1a52b40aa09db4, type: 2}
      propertyPath: conditionCollections.Array.data[0].conditions.Array.data[0].condition
      value: 
      objectReference: {fileID: 11400000, guid: 08c1e490445fe48468256959f20b7ae4,
        type: 2}
    - target: {fileID: 11484708, guid: d48734bd22479a14cb1a52b40aa09db4, type: 2}
      propertyPath: conditionCollections.Array.data[0].conditions.Array.data[1].condition
      value: 
      objectReference: {fileID: 11400000, guid: 08c1e490445fe48468256959f20b7ae4,
        type: 2}
    - target: {fileID: 11484708, guid: d48734bd22479a14cb1a52b40aa09db4, type: 2}
      propertyPath: conditionCollections.Array.data[1].conditions.Array.data[0].condition
      value: 
      objectReference: {fileID: 11400000, guid: 08c1e490445fe48468256959f20b7ae4,
        type: 2}
    - target: {fileID: 11484708, guid: d48734bd22479a14cb1a52b40aa09db4, type: 2}
      propertyPath: conditionCollections.Array.data[0].conditions.Array.data[0].objectToCheck
      value: 
      objectReference: {fileID: 11400000, guid: d016867521888e04cb37abe439c100f7,
        type: 2}
    - target: {fileID: 11484708, guid: d48734bd22479a14cb1a52b40aa09db4, type: 2}
      propertyPath: conditionCollections.Array.data[0].conditions.Array.data[1].objectToCheck
      value: 
      objectReference: {fileID: 11400000, guid: f0776cdb931cbdb4b83c5035ebf49463,
        type: 2}
    - target: {fileID: 11484708, guid: d48734bd22479a14cb1a52b40aa09db4, type: 2}
      propertyPath: conditionCollections.Array.data[1].conditions.Array.data[0].objectToCheck
      value: 
      objectReference: {fileID: 11400000, guid: f0776cdb931cbdb4b83c5035ebf49463,
        type: 2}
    - target: {fileID: 11484708, guid: d48734bd22479a14cb1a52b40aa09db4, type: 2}
      propertyPath: conditionCollections.Array.data[0].conditions.Array.data[0].conditionState
      value: 1
      objectReference: {fileID: 0}
    - target: {fileID: 11484708, guid: d48734bd22479a14cb1a52b40aa09db4, type: 2}
      propertyPath: conditionCollections.Array.data[0].conditions.Array.data[1].conditionState
      value: 1
      objectReference: {fileID: 0}
    - target: {fileID: 11484708, guid: d48734bd22479a14cb1a52b40aa09db4, type: 2}
      propertyPath: conditionCollections.Array.data[1].conditions.Array.data[0].conditionState
      value: 1
      objectReference: {fileID: 0}
    - target: {fileID: 491826, guid: d48734bd22479a14cb1a52b40aa09db4, type: 2}
      propertyPath: m_LocalRotation.y
      value: 1
      objectReference: {fileID: 0}
    - target: {fileID: 491826, guid: d48734bd22479a14cb1a52b40aa09db4, type: 2}
      propertyPath: m_LocalRotation.w
      value: -0.00000016292068
      objectReference: {fileID: 0}
    - target: {fileID: 491826, guid: d48734bd22479a14cb1a52b40aa09db4, type: 2}
      propertyPath: m_LocalPosition.z
      value: 2.2
      objectReference: {fileID: 0}
    - target: {fileID: 491826, guid: d48734bd22479a14cb1a52b40aa09db4, type: 2}
      propertyPath: m_LocalEulerAnglesHint.y
      value: -180
      objectReference: {fileID: 0}
    - target: {fileID: 11441280, guid: d48734bd22479a14cb1a52b40aa09db4, type: 2}
      propertyPath: reactions.Array.data[0]
      value: 
      objectReference: {fileID: 789374198}
    - target: {fileID: 11441280, guid: d48734bd22479a14cb1a52b40aa09db4, type: 2}
      propertyPath: reactions.Array.data[1]
      value: 
      objectReference: {fileID: 693356648}
    - target: {fileID: 11441280, guid: d48734bd22479a14cb1a52b40aa09db4, type: 2}
      propertyPath: reactions.Array.data[2]
      value: 
      objectReference: {fileID: 921382151}
    - target: {fileID: 11441280, guid: d48734bd22479a14cb1a52b40aa09db4, type: 2}
      propertyPath: reactions.Array.data[3]
      value: 
      objectReference: {fileID: 1147711796}
    - target: {fileID: 11484708, guid: d48734bd22479a14cb1a52b40aa09db4, type: 2}
      propertyPath: conditionCollections.Array.data[0].conditions.Array.data[2].condition
      value: 
      objectReference: {fileID: 11400000, guid: e103e04006611934e83a070f62f2d7ab,
        type: 2}
    - target: {fileID: 11484708, guid: d48734bd22479a14cb1a52b40aa09db4, type: 2}
      propertyPath: conditionCollections.Array.data[0].conditions.Array.data[2].objectToCheck
      value: 
      objectReference: {fileID: 1276257940}
    - target: {fileID: 11484708, guid: d48734bd22479a14cb1a52b40aa09db4, type: 2}
      propertyPath: conditionCollections.Array.data[0].conditions.Array.data[2].conditionState
      value: 0
      objectReference: {fileID: 0}
    - target: {fileID: 11484708, guid: d48734bd22479a14cb1a52b40aa09db4, type: 2}
      propertyPath: conditionCollections.Array.data[0]
      value: 
      objectReference: {fileID: 1651130631}
    - target: {fileID: 11484708, guid: d48734bd22479a14cb1a52b40aa09db4, type: 2}
      propertyPath: conditionCollections.Array.data[1]
      value: 
      objectReference: {fileID: 1283123098}
    - target: {fileID: 11484708, guid: d48734bd22479a14cb1a52b40aa09db4, type: 2}
      propertyPath: conditionCollections.Array.data[2]
      value: 
      objectReference: {fileID: 669618034}
    - target: {fileID: 11484708, guid: d48734bd22479a14cb1a52b40aa09db4, type: 2}
      propertyPath: conditionCollections.Array.data[3]
      value: 
      objectReference: {fileID: 669618034}
    - target: {fileID: 11484708, guid: d48734bd22479a14cb1a52b40aa09db4, type: 2}
      propertyPath: conditionCollections.Array.data[4]
      value: 
      objectReference: {fileID: 669618034}
    - target: {fileID: 11484708, guid: d48734bd22479a14cb1a52b40aa09db4, type: 2}
      propertyPath: interactionLocation
      value: 
      objectReference: {fileID: 1746140241}
    - target: {fileID: 11484708, guid: d48734bd22479a14cb1a52b40aa09db4, type: 2}
      propertyPath: defaultReaction
      value: 
      objectReference: {fileID: 1746140240}
    - target: {fileID: 491826, guid: d48734bd22479a14cb1a52b40aa09db4, type: 2}
      propertyPath: m_LocalPosition.y
      value: 0.02
      objectReference: {fileID: 0}
    - target: {fileID: 11485606, guid: d48734bd22479a14cb1a52b40aa09db4, type: 2}
      propertyPath: m_Delegates.Array.data[1].callback.m_PersistentCalls.m_Calls.Array.data[0].m_Target
      value: 
      objectReference: {fileID: 1094123814}
    - target: {fileID: 11485606, guid: d48734bd22479a14cb1a52b40aa09db4, type: 2}
      propertyPath: m_Delegates.Array.data[1].callback.m_PersistentCalls.m_Calls.Array.data[0].m_MethodName
      value: OnPointerEnter
      objectReference: {fileID: 0}
    - target: {fileID: 11485606, guid: d48734bd22479a14cb1a52b40aa09db4, type: 2}
      propertyPath: m_Delegates.Array.data[1].callback.m_PersistentCalls.m_Calls.Array.data[0].m_Mode
      value: 1
      objectReference: {fileID: 0}
    - target: {fileID: 11485606, guid: d48734bd22479a14cb1a52b40aa09db4, type: 2}
      propertyPath: m_Delegates.Array.data[1].callback.m_PersistentCalls.m_Calls.Array.data[0].m_Arguments.m_ObjectArgument
      value: 
      objectReference: {fileID: 0}
    - target: {fileID: 11485606, guid: d48734bd22479a14cb1a52b40aa09db4, type: 2}
      propertyPath: m_Delegates.Array.data[1].callback.m_PersistentCalls.m_Calls.Array.data[0].m_Arguments.m_ObjectArgumentAssemblyTypeName
      value: UnityEngine.Object, UnityEngine
      objectReference: {fileID: 0}
    - target: {fileID: 11485606, guid: d48734bd22479a14cb1a52b40aa09db4, type: 2}
      propertyPath: m_Delegates.Array.data[1].callback.m_PersistentCalls.m_Calls.Array.data[0].m_CallState
      value: 2
      objectReference: {fileID: 0}
    - target: {fileID: 11485606, guid: d48734bd22479a14cb1a52b40aa09db4, type: 2}
      propertyPath: m_Delegates.Array.data[1].callback.m_TypeName
      value: UnityEngine.EventSystems.EventTrigger+TriggerEvent, UnityEngine.UI, Version=1.0.0.0,
        Culture=neutral, PublicKeyToken=null
      objectReference: {fileID: 0}
    - target: {fileID: 11485606, guid: d48734bd22479a14cb1a52b40aa09db4, type: 2}
      propertyPath: m_Delegates.Array.data[2].eventID
      value: 1
      objectReference: {fileID: 0}
    - target: {fileID: 11485606, guid: d48734bd22479a14cb1a52b40aa09db4, type: 2}
      propertyPath: m_Delegates.Array.data[2].callback.m_PersistentCalls.m_Calls.Array.data[0].m_Target
      value: 
      objectReference: {fileID: 1094123814}
    - target: {fileID: 11485606, guid: d48734bd22479a14cb1a52b40aa09db4, type: 2}
      propertyPath: m_Delegates.Array.data[2].callback.m_PersistentCalls.m_Calls.Array.data[0].m_MethodName
      value: OnPointerExit
      objectReference: {fileID: 0}
    - target: {fileID: 11485606, guid: d48734bd22479a14cb1a52b40aa09db4, type: 2}
      propertyPath: m_Delegates.Array.data[2].callback.m_PersistentCalls.m_Calls.Array.data[0].m_Mode
      value: 1
      objectReference: {fileID: 0}
    - target: {fileID: 11485606, guid: d48734bd22479a14cb1a52b40aa09db4, type: 2}
      propertyPath: m_Delegates.Array.data[2].callback.m_PersistentCalls.m_Calls.Array.data[0].m_Arguments.m_ObjectArgument
      value: 
      objectReference: {fileID: 0}
    - target: {fileID: 11485606, guid: d48734bd22479a14cb1a52b40aa09db4, type: 2}
      propertyPath: m_Delegates.Array.data[2].callback.m_PersistentCalls.m_Calls.Array.data[0].m_Arguments.m_ObjectArgumentAssemblyTypeName
      value: UnityEngine.Object, UnityEngine
      objectReference: {fileID: 0}
    - target: {fileID: 11485606, guid: d48734bd22479a14cb1a52b40aa09db4, type: 2}
      propertyPath: m_Delegates.Array.data[2].callback.m_PersistentCalls.m_Calls.Array.data[0].m_CallState
      value: 2
      objectReference: {fileID: 0}
    - target: {fileID: 11485606, guid: d48734bd22479a14cb1a52b40aa09db4, type: 2}
      propertyPath: m_Delegates.Array.data[2].callback.m_TypeName
      value: UnityEngine.EventSystems.EventTrigger+TriggerEvent, UnityEngine.UI, Version=1.0.0.0,
        Culture=neutral, PublicKeyToken=null
      objectReference: {fileID: 0}
    m_RemovedComponents: []
  m_ParentPrefab: {fileID: 100100000, guid: d48734bd22479a14cb1a52b40aa09db4, type: 2}
  m_IsPrefabParent: 0
--- !u!114 &1746140238 stripped
MonoBehaviour:
  m_PrefabParentObject: {fileID: 11484708, guid: d48734bd22479a14cb1a52b40aa09db4,
    type: 2}
  m_PrefabInternal: {fileID: 1746140237}
  m_Script: {fileID: 11500000, guid: d85941078afdf3244b2a1ae50fea256c, type: 3}
--- !u!4 &1746140239 stripped
Transform:
  m_PrefabParentObject: {fileID: 474418, guid: d48734bd22479a14cb1a52b40aa09db4, type: 2}
  m_PrefabInternal: {fileID: 1746140237}
--- !u!114 &1746140240 stripped
MonoBehaviour:
  m_PrefabParentObject: {fileID: 11441280, guid: d48734bd22479a14cb1a52b40aa09db4,
    type: 2}
  m_PrefabInternal: {fileID: 1746140237}
  m_Script: {fileID: 11500000, guid: 1fc7ecfe98531f2429694b8c81a6748a, type: 3}
--- !u!4 &1746140241 stripped
Transform:
  m_PrefabParentObject: {fileID: 491826, guid: d48734bd22479a14cb1a52b40aa09db4, type: 2}
  m_PrefabInternal: {fileID: 1746140237}
--- !u!114 &1906087159
MonoBehaviour:
  m_ObjectHideFlags: 0
  m_PrefabParentObject: {fileID: 0}
  m_PrefabInternal: {fileID: 0}
  m_GameObject: {fileID: 0}
  m_Enabled: 1
  m_EditorHideFlags: 0
  m_Script: {fileID: 11500000, guid: 03f8a149ea5a3aa4583dc1cab3334cbc, type: 3}
  m_Name: 
  m_EditorClassIdentifier: 
  message: YOU WIN!
  textColor: {r: 1, g: 0, b: 0, a: 1}
  delay: 0
--- !u!114 &1906371743
MonoBehaviour:
  m_ObjectHideFlags: 0
  m_PrefabParentObject: {fileID: 0}
  m_PrefabInternal: {fileID: 0}
  m_GameObject: {fileID: 0}
  m_Enabled: 1
  m_EditorHideFlags: 0
  m_Script: {fileID: 11500000, guid: ec43236ba6522584894ac80bfbcb3815, type: 3}
  m_Name: 
  m_EditorClassIdentifier: 
  condition: {fileID: 114000012991011084, guid: fd02464d008c790478d9826aba7c7847,
    type: 2}
  satisfied: 1
--- !u!114 &1921767126
MonoBehaviour:
  m_ObjectHideFlags: 0
  m_PrefabParentObject: {fileID: 0}
  m_PrefabInternal: {fileID: 0}
  m_GameObject: {fileID: 0}
  m_Enabled: 1
  m_EditorHideFlags: 0
  m_Script: {fileID: 11500000, guid: a931d1c243b462c46bad5f7d2aae5949, type: 3}
  m_Name: 
  m_EditorClassIdentifier: 
  delay: 0
  animator: {fileID: 0}
  trigger: 
--- !u!1 &1955368932
GameObject:
  m_ObjectHideFlags: 0
  m_PrefabParentObject: {fileID: 105628, guid: d48734bd22479a14cb1a52b40aa09db4, type: 2}
  m_PrefabInternal: {fileID: 0}
  serializedVersion: 5
  m_Component:
  - component: {fileID: 1955368933}
  - component: {fileID: 1955368934}
  m_Layer: 0
  m_Name: GlassesReaction
  m_TagString: Untagged
  m_Icon: {fileID: 0}
  m_NavMeshLayer: 0
  m_StaticEditorFlags: 0
  m_IsActive: 1
--- !u!4 &1955368933
Transform:
  m_ObjectHideFlags: 0
  m_PrefabParentObject: {fileID: 424910, guid: d48734bd22479a14cb1a52b40aa09db4, type: 2}
  m_PrefabInternal: {fileID: 0}
  m_GameObject: {fileID: 1955368932}
  m_LocalRotation: {x: 0, y: 0, z: 0, w: 1}
  m_LocalPosition: {x: 0, y: 0, z: 0}
  m_LocalScale: {x: 1, y: 1, z: 1}
  m_Children: []
  m_Father: {fileID: 1746140239}
  m_RootOrder: 3
  m_LocalEulerAnglesHint: {x: 0, y: 0, z: 0}
--- !u!114 &1955368934
MonoBehaviour:
  m_ObjectHideFlags: 0
  m_PrefabParentObject: {fileID: 11441280, guid: d48734bd22479a14cb1a52b40aa09db4,
    type: 2}
  m_PrefabInternal: {fileID: 0}
  m_GameObject: {fileID: 1955368932}
  m_Enabled: 1
  m_EditorHideFlags: 0
  m_Script: {fileID: 11500000, guid: 1fc7ecfe98531f2429694b8c81a6748a, type: 3}
  m_Name: 
  m_EditorClassIdentifier: 
  reactions:
  - {fileID: 104556140}
  - {fileID: 294159636}
--- !u!114 &2070106622
MonoBehaviour:
  m_ObjectHideFlags: 0
  m_PrefabParentObject: {fileID: 0}
  m_PrefabInternal: {fileID: 0}
  m_GameObject: {fileID: 0}
  m_Enabled: 1
  m_EditorHideFlags: 0
  m_Script: {fileID: 11500000, guid: 48c14b7cdc8cc6347b3a5d48d05c9c85, type: 3}
  m_Name: 
  m_EditorClassIdentifier: 
  description: HasCoffee
  satisfied: 1
  hash: -1486269948
