%YAML 1.1
%TAG !u! tag:unity3d.com,2011:
--- !u!114 &11400000
MonoBehaviour:
  m_ObjectHideFlags: 0
  m_PrefabParentObject: {fileID: 0}
  m_PrefabInternal: {fileID: 0}
  m_GameObject: {fileID: 0}
  m_Enabled: 1
  m_EditorHideFlags: 0
  m_Script: {fileID: 11500000, guid: 2f67bd8ec6e33af4987562f6141a3bf2, type: 3}
  m_Name: Coffee
  m_EditorClassIdentifier: 
  sprite: {fileID: 21300000, guid: 0d6887c5e31a67d4c9c3988379769ec4, type: 3}
  itemName: Coffee
  itemDesc: A hot cup of coffee
