%YAML 1.1
%TAG !u! tag:unity3d.com,2011:
--- !u!114 &11400000
MonoBehaviour:
  m_ObjectHideFlags: 0
  m_PrefabParentObject: {fileID: 0}
  m_PrefabInternal: {fileID: 0}
  m_GameObject: {fileID: 0}
  m_Enabled: 1
  m_EditorHideFlags: 0
  m_Script: {fileID: 11500000, guid: 2f67bd8ec6e33af4987562f6141a3bf2, type: 3}
  m_Name: Glasses
  m_EditorClassIdentifier: 
  sprite: {fileID: 21300000, guid: e2846dbbb26170a438d7da1d69f7d05e, type: 3}
  itemName: Gasses
  itemDesc: These remind me of someone
